  0
SECTION
  2
HEADER
  9
$ACADVER
  1
AC1032
  9
$ACADMAINTVER
 90
       55
  9
$DWGCODEPAGE
  3
DOS850
  9
$LASTSAVEDBY
  1
Nuno
  9
$REQUIREDVERSIONS
160
                 0
  9
$INSBASE
 10
8.980737390072882
 20
-295.7693970921855
 30
0.0
  9
$EXTMIN
 10
8.982037390072872
 20
-295.7693970921855
 30
0.0
  9
$EXTMAX
 10
10.12407301007287
 20
-294.3693942921855
 30
0.0
  9
$LIMMIN
 10
0.0
 20
0.0
  9
$LIMMAX
 10
600.0
 20
500.0
  9
$ORTHOMODE
 70
     0
  9
$REGENMODE
 70
     1
  9
$FILLMODE
 70
     1
  9
$QTEXTMODE
 70
     0
  9
$MIRRTEXT
 70
     0
  9
$LTSCALE
 40
0.2
  9
$ATTMODE
 70
     1
  9
$TEXTSIZE
 40
0.1
  9
$TRACEWID
 40
10.0
  9
$TEXTSTYLE
  7
FON
  9
$CLAYER
  8
0
  9
$CELTYPE
  6
CONTINUOUS
  9
$CECOLOR
 62
     7
  9
$CELTSCALE
 40
1.0
  9
$DISPSILH
 70
     0
  9
$DIMSCALE
 40
1.0
  9
$DIMASZ
 40
3.0
  9
$DIMEXO
 40
0.0
  9
$DIMDLI
 40
10.0
  9
$DIMRND
 40
0.0
  9
$DIMDLE
 40
1.25
  9
$DIMEXE
 40
2.5
  9
$DIMTP
 40
0.0
  9
$DIMTM
 40
0.0
  9
$DIMTXT
 40
2.5
  9
$DIMCEN
 40
0.0
  9
$DIMTSZ
 40
0.0
  9
$DIMTOL
 70
     0
  9
$DIMLIM
 70
     0
  9
$DIMTIH
 70
     1
  9
$DIMTOH
 70
     1
  9
$DIMSE1
 70
     0
  9
$DIMSE2
 70
     0
  9
$DIMTAD
 70
     0
  9
$DIMZIN
 70
     1
  9
$DIMBLK
  1

  9
$DIMASO
 70
     1
  9
$DIMSHO
 70
     0
  9
$DIMPOST
  1

  9
$DIMAPOST
  1
s/w
  9
$DIMALT
 70
     0
  9
$DIMALTD
 70
     1
  9
$DIMALTF
 40
0.04
  9
$DIMLFAC
 40
1.0
  9
$DIMTOFL
 70
     0
  9
$DIMTVP
 40
0.0
  9
$DIMTIX
 70
     1
  9
$DIMSOXD
 70
     0
  9
$DIMSAH
 70
     0
  9
$DIMBLK1
  1

  9
$DIMBLK2
  1

  9
$DIMSTYLE
  2
Standard
  9
$DIMCLRD
 70
     0
  9
$DIMCLRE
 70
     0
  9
$DIMCLRT
 70
     0
  9
$DIMTFAC
 40
1.2
  9
$DIMGAP
 40
1.5
  9
$DIMJUST
 70
     0
  9
$DIMSD1
 70
     0
  9
$DIMSD2
 70
     0
  9
$DIMTOLJ
 70
     1
  9
$DIMTZIN
 70
     0
  9
$DIMALTZ
 70
     0
  9
$DIMALTTZ
 70
     0
  9
$DIMUPT
 70
     0
  9
$DIMDEC
 70
     3
  9
$DIMTDEC
 70
     3
  9
$DIMALTU
 70
     2
  9
$DIMALTTD
 70
     2
  9
$DIMTXSTY
  7
STANDARD
  9
$DIMAUNIT
 70
     0
  9
$DIMADEC
 70
     0
  9
$DIMALTRND
 40
0.0
  9
$DIMAZIN
 70
     0
  9
$DIMDSEP
 70
    46
  9
$DIMATFIT
 70
     3
  9
$DIMFRAC
 70
     0
  9
$DIMLDRBLK
  1

  9
$DIMLUNIT
 70
     2
  9
$DIMLWD
 70
    -2
  9
$DIMLWE
 70
    -2
  9
$DIMTMOVE
 70
     2
  9
$DIMFXL
 40
1.0
  9
$DIMFXLON
 70
     0
  9
$DIMJOGANG
 40
0.7853981633974483
  9
$DIMTFILL
 70
     0
  9
$DIMTFILLCLR
 70
     0
  9
$DIMARCSYM
 70
     0
  9
$DIMLTYPE
  6

  9
$DIMLTEX1
  6

  9
$DIMLTEX2
  6

  9
$DIMTXTDIRECTION
 70
     0
  9
$LUNITS
 70
     2
  9
$LUPREC
 70
     3
  9
$SKETCHINC
 40
1.0
  9
$FILLETRAD
 40
0.0
  9
$AUNITS
 70
     0
  9
$AUPREC
 70
     4
  9
$MENU
  1
ACAD
  9
$ELEVATION
 40
0.0
  9
$PELEVATION
 40
0.0
  9
$THICKNESS
 40
0.0
  9
$LIMCHECK
 70
     0
  9
$CHAMFERA
 40
0.0
  9
$CHAMFERB
 40
0.0
  9
$CHAMFERC
 40
0.0
  9
$CHAMFERD
 40
0.0
  9
$SKPOLY
 70
     1
  9
$TDCREATE
 40
2449947.804010417
  9
$TDUCREATE
 40
2449947.845677084
  9
$TDUPDATE
 40
2459919.958891933
  9
$TDUUPDATE
 40
2459920.0005586
  9
$TDINDWG
 40
0.0000782407
  9
$TDUSRTIMER
 40
0.0000782407
  9
$USRTIMER
 70
     1
  9
$ANGBASE
 50
0.0
  9
$ANGDIR
 70
     0
  9
$PDMODE
 70
     1
  9
$PDSIZE
 40
0.0
  9
$PLINEWID
 40
0.0
  9
$SPLFRAME
 70
     0
  9
$SPLINETYPE
 70
     6
  9
$SPLINESEGS
 70
     6
  9
$HANDSEED
  5
E6
  9
$SURFTAB1
 70
    12
  9
$SURFTAB2
 70
    12
  9
$SURFTYPE
 70
     6
  9
$SURFU
 70
    12
  9
$SURFV
 70
    12
  9
$UCSBASE
  2

  9
$UCSNAME
  2

  9
$UCSORG
 10
0.0
 20
0.0
 30
0.0
  9
$UCSXDIR
 10
1.0
 20
0.0
 30
0.0
  9
$UCSYDIR
 10
0.0
 20
1.0
 30
0.0
  9
$UCSORTHOREF
  2

  9
$UCSORTHOVIEW
 70
     0
  9
$UCSORGTOP
 10
0.0
 20
0.0
 30
0.0
  9
$UCSORGBOTTOM
 10
0.0
 20
0.0
 30
0.0
  9
$UCSORGLEFT
 10
0.0
 20
0.0
 30
0.0
  9
$UCSORGRIGHT
 10
0.0
 20
0.0
 30
0.0
  9
$UCSORGFRONT
 10
0.0
 20
0.0
 30
0.0
  9
$UCSORGBACK
 10
0.0
 20
0.0
 30
0.0
  9
$PUCSBASE
  2

  9
$PUCSNAME
  2

  9
$PUCSORG
 10
0.0
 20
0.0
 30
0.0
  9
$PUCSXDIR
 10
1.0
 20
0.0
 30
0.0
  9
$PUCSYDIR
 10
0.0
 20
1.0
 30
0.0
  9
$PUCSORTHOREF
  2

  9
$PUCSORTHOVIEW
 70
     0
  9
$PUCSORGTOP
 10
0.0
 20
0.0
 30
0.0
  9
$PUCSORGBOTTOM
 10
0.0
 20
0.0
 30
0.0
  9
$PUCSORGLEFT
 10
0.0
 20
0.0
 30
0.0
  9
$PUCSORGRIGHT
 10
0.0
 20
0.0
 30
0.0
  9
$PUCSORGFRONT
 10
0.0
 20
0.0
 30
0.0
  9
$PUCSORGBACK
 10
0.0
 20
0.0
 30
0.0
  9
$USERI1
 70
     0
  9
$USERI2
 70
     0
  9
$USERI3
 70
     0
  9
$USERI4
 70
     0
  9
$USERI5
 70
     0
  9
$USERR1
 40
0.0
  9
$USERR2
 40
0.0
  9
$USERR3
 40
0.0
  9
$USERR4
 40
0.0
  9
$USERR5
 40
0.0
  9
$WORLDVIEW
 70
     1
  9
$SHADEDGE
 70
     3
  9
$SHADEDIF
 70
    70
  9
$TILEMODE
 70
     1
  9
$MAXACTVP
 70
    16
  9
$PINSBASE
 10
0.0
 20
0.0
 30
0.0
  9
$PLIMCHECK
 70
     0
  9
$PEXTMIN
 10
1.000000000000000E+20
 20
1.000000000000000E+20
 30
1.000000000000000E+20
  9
$PEXTMAX
 10
-1.000000000000000E+20
 20
-1.000000000000000E+20
 30
-1.000000000000000E+20
  9
$PLIMMIN
 10
0.0
 20
0.0
  9
$PLIMMAX
 10
12.0
 20
9.0
  9
$UNITMODE
 70
     0
  9
$VISRETAIN
 70
     0
  9
$PLINEGEN
 70
     0
  9
$PSLTSCALE
 70
     0
  9
$TREEDEPTH
 70
  3020
  9
$CMLSTYLE
  2
Standard
  9
$CMLJUST
 70
     0
  9
$CMLSCALE
 40
1.0
  9
$PROXYGRAPHICS
 70
     1
  9
$MEASUREMENT
 70
     0
  9
$CELWEIGHT
370
    -1
  9
$ENDCAPS
280
     0
  9
$JOINSTYLE
280
     0
  9
$LWDISPLAY
290
     0
  9
$INSUNITS
 70
     0
  9
$HYPERLINKBASE
  1

  9
$STYLESHEET
  1

  9
$XEDIT
290
     1
  9
$CEPSNTYPE
380
     0
  9
$PSTYLEMODE
290
     1
  9
$FINGERPRINTGUID
  2
{3bfe18f2-0ac2-40f4-b864-3ea8c1144bc7}
  9
$VERSIONGUID
  2
{FAEB1C32-E019-11D5-929B-00C0DF256EC4}
  9
$EXTNAMES
290
     1
  9
$PSVPSCALE
 40
0.0
  9
$OLESTARTUP
290
     0
  9
$SORTENTS
280
   127
  9
$INDEXCTL
280
     0
  9
$HIDETEXT
280
     1
  9
$XCLIPFRAME
280
     2
  9
$HALOGAP
280
     0
  9
$OBSCOLOR
 70
   257
  9
$OBSLTYPE
280
     0
  9
$INTERSECTIONDISPLAY
280
     0
  9
$INTERSECTIONCOLOR
 70
   257
  9
$DIMASSOC
280
     2
  9
$PROJECTNAME
  1

  9
$CAMERADISPLAY
290
     0
  9
$LENSLENGTH
 40
50.0
  9
$CAMERAHEIGHT
 40
0.0
  9
$STEPSPERSEC
 40
2.0
  9
$STEPSIZE
 40
6.0
  9
$3DDWFPREC
 40
2.0
  9
$PSOLWIDTH
 40
0.25
  9
$PSOLHEIGHT
 40
4.0
  9
$LOFTANG1
 40
1.570796326794897
  9
$LOFTANG2
 40
1.570796326794897
  9
$LOFTMAG1
 40
0.0
  9
$LOFTMAG2
 40
0.0
  9
$LOFTPARAM
 70
     7
  9
$LOFTNORMALS
280
     1
  9
$LATITUDE
 40
37.795
  9
$LONGITUDE
 40
-122.394
  9
$NORTHDIRECTION
 40
0.0
  9
$TIMEZONE
 70
 -8000
  9
$LIGHTGLYPHDISPLAY
280
     1
  9
$TILEMODELIGHTSYNCH
280
     1
  9
$CMATERIAL
347
D6
  9
$SOLIDHIST
280
     0
  9
$SHOWHIST
280
     1
  9
$DWFFRAME
280
     2
  9
$DGNFRAME
280
     2
  9
$REALWORLDSCALE
290
     1
  9
$INTERFERECOLOR
 62
   256
  9
$CSHADOW
280
     0
  9
$SHADOWPLANELOCATION
 40
0.0
  0
ENDSEC
  0
SECTION
  2
CLASSES
  0
CLASS
  1
ACDBDICTIONARYWDFLT
  2
AcDbDictionaryWithDefault
  3
ObjectDBX Classes
 90
        0
 91
        3
280
     0
281
     0
  0
CLASS
  1
SCALE
  2
AcDbScale
  3
ObjectDBX Classes
 90
     1153
 91
        3
280
     0
281
     0
  0
CLASS
  1
VISUALSTYLE
  2
AcDbVisualStyle
  3
ObjectDBX Classes
 90
     4095
 91
        3
280
     0
281
     0
  0
CLASS
  1
MATERIAL
  2
AcDbMaterial
  3
ObjectDBX Classes
 90
     1153
 91
        3
280
     0
281
     0
  0
CLASS
  1
TABLESTYLE
  2
AcDbTableStyle
  3
ObjectDBX Classes
 90
     4095
 91
        3
280
     0
281
     0
  0
CLASS
  1
MLEADERSTYLE
  2
AcDbMLeaderStyle
  3
ACDB_MLEADERSTYLE_CLASS
 90
     4095
 91
        3
280
     0
281
     0
  0
CLASS
  1
DICTIONARYVAR
  2
AcDbDictionaryVar
  3
ObjectDBX Classes
 90
        0
 91
        3
280
     0
281
     0
  0
CLASS
  1
CELLSTYLEMAP
  2
AcDbCellStyleMap
  3
ObjectDBX Classes
 90
     1152
 91
        3
280
     0
281
     0
  0
ENDSEC
  0
SECTION
  2
TABLES
  0
TABLE
  2
VPORT
  5
8
330
0
100
AcDbSymbolTable
 70
     1
  0
VPORT
  5
1E
330
8
100
AcDbSymbolTableRecord
100
AcDbViewportTableRecord
  2
*ACTIVE
 70
     0
 10
0.0
 20
0.0
 11
1.0
 21
1.0
 12
9.94466705255461
 22
-295.0693956921855
 13
0.0
 23
0.0
 14
0.5
 24
0.5
 15
4.0
 25
4.0
 16
0.0
 26
0.0
 36
1.0
 17
0.0
 27
0.0
 37
0.0
 40
1.400002799999982
 41
0.7271762208067941
 42
50.0
 43
0.0
 44
0.0
 50
0.0
 51
0.0
 71
     0
 72
  2000
 73
     1
 74
     2
 75
     0
 76
     0
 77
     0
 78
     1
281
     0
 65
     0
110
0.0
120
0.0
130
0.0
111
1.0
121
0.0
131
0.0
112
0.0
122
1.0
132
0.0
 79
     0
146
0.0
348
C1
 60
     3
 61
     5
292
     1
282
     1
141
0.0
142
0.0
 63
   256
  0
ENDTAB
  0
TABLE
  2
LTYPE
  5
5
330
0
100
AcDbSymbolTable
 70
     1
  0
LTYPE
  5
10
330
5
100
AcDbSymbolTableRecord
100
AcDbLinetypeTableRecord
  2
ByBlock
 70
     0
  3

 72
    65
 73
     0
 40
0.0
  0
LTYPE
  5
11
330
5
100
AcDbSymbolTableRecord
100
AcDbLinetypeTableRecord
  2
ByLayer
 70
     0
  3

 72
    65
 73
     0
 40
0.0
  0
LTYPE
  5
1B
330
5
100
AcDbSymbolTableRecord
100
AcDbLinetypeTableRecord
  2
CONTINUOUS
 70
     0
  3
Solid line
 72
    65
 73
     0
 40
0.0
  0
ENDTAB
  0
TABLE
  2
LAYER
  5
2
330
0
100
AcDbSymbolTable
 70
     1
  0
LAYER
  5
1C
330
2
100
AcDbSymbolTableRecord
100
AcDbLayerTableRecord
  2
0
 70
     0
 62
     7
  6
CONTINUOUS
370
    -3
390
F
347
D8
348
0
  0
ENDTAB
  0
TABLE
  2
STYLE
  5
3
330
0
100
AcDbSymbolTable
 70
     2
  0
STYLE
  5
20
330
3
100
AcDbSymbolTableRecord
100
AcDbTextStyleTableRecord
  2
STANDARD
 70
     0
 40
0.0
 41
1.0
 50
0.0
 71
     0
 42
0.1
  3
simplex
  4

  0
STYLE
  5
21
330
3
100
AcDbSymbolTableRecord
100
AcDbTextStyleTableRecord
  2
FON
 70
     0
 40
0.0
 41
1.0
 50
0.0
 71
     0
 42
0.1
  3
SASB____.PFB
  4

  0
ENDTAB
  0
TABLE
  2
VIEW
  5
6
330
0
100
AcDbSymbolTable
 70
     0
  0
ENDTAB
  0
TABLE
  2
UCS
  5
7
330
0
100
AcDbSymbolTable
 70
     0
  0
ENDTAB
  0
TABLE
  2
APPID
  5
9
330
0
100
AcDbSymbolTable
 70
     1
  0
APPID
  5
1F
330
9
100
AcDbSymbolTableRecord
100
AcDbRegAppTableRecord
  2
ACAD
 70
     0
  0
ENDTAB
  0
TABLE
  2
DIMSTYLE
  5
A
330
0
100
AcDbSymbolTable
 70
     1
100
AcDbDimStyleTable
  0
DIMSTYLE
105
22
330
A
100
AcDbSymbolTableRecord
100
AcDbDimStyleTableRecord
  2
Standard
 70
     0
178
     0
340
20
  0
ENDTAB
  0
TABLE
  2
BLOCK_RECORD
  5
1
330
0
100
AcDbSymbolTable
 70
     0
  0
BLOCK_RECORD
  5
18
330
1
100
AcDbSymbolTableRecord
100
AcDbBlockTableRecord
  2
*Model_Space
340
19
 70
     0
280
     1
281
     0
  0
BLOCK_RECORD
  5
16
330
1
100
AcDbSymbolTableRecord
100
AcDbBlockTableRecord
  2
*Paper_Space
340
17
 70
     0
280
     1
281
     0
  0
ENDTAB
  0
ENDSEC
  0
SECTION
  2
BLOCKS
  0
BLOCK
  5
A8
330
18
100
AcDbEntity
  8
0
100
AcDbBlockBegin
  2
*Model_Space
 70
     0
 10
0.0
 20
0.0
 30
0.0
  3
*Model_Space
  1

  0
ENDBLK
  5
A9
330
18
100
AcDbEntity
  8
0
100
AcDbBlockEnd
  0
BLOCK
  5
A6
330
16
100
AcDbEntity
 67
     1
  8
0
100
AcDbBlockBegin
  2
*Paper_Space
 70
     0
 10
0.0
 20
0.0
 30
0.0
  3
*Paper_Space
  1

  0
ENDBLK
  5
A7
330
16
100
AcDbEntity
 67
     1
  8
0
100
AcDbBlockEnd
  0
ENDSEC
  0
SECTION
  2
ENTITIES
  0
LINE
  5
23
330
18
100
AcDbEntity
  8
0
  6
ByBlock
 62
     0
100
AcDbLine
 10
10.11394854229929
 20
-294.6427281721855
 30
0.0
 11
10.11394854229929
 21
-294.3693942921855
 31
0.0
  0
LINE
  5
24
330
18
100
AcDbEntity
  8
0
  6
ByBlock
 62
     0
100
AcDbLine
 10
10.1012485422993
 20
-294.6427281721855
 30
0.0
 11
10.1012485422993
 21
-294.3693942921855
 31
0.0
  0
LINE
  5
25
330
18
100
AcDbEntity
  8
0
  6
ByBlock
 62
     0
100
AcDbLine
 10
10.08854854229927
 20
-294.6427281721855
 30
0.0
 11
10.08854854229927
 21
-294.3693942921855
 31
0.0
  0
LINE
  5
26
330
18
100
AcDbEntity
  8
0
  6
ByBlock
 62
     0
100
AcDbLine
 10
10.07584854229928
 20
-294.6427281721855
 30
0.0
 11
10.07584854229928
 21
-294.3693942921855
 31
0.0
  0
LINE
  5
27
330
18
100
AcDbEntity
  8
0
  6
ByBlock
 62
     0
100
AcDbLine
 10
10.06314854229928
 20
-294.6427281721855
 30
0.0
 11
10.06314854229928
 21
-294.3693942921855
 31
0.0
  0
LINE
  5
28
330
18
100
AcDbEntity
  8
0
  6
ByBlock
 62
     0
100
AcDbLine
 10
10.06314854229928
 20
-295.1893959321855
 30
0.0
 11
10.06314854229928
 21
-294.9293954121856
 31
0.0
  0
LINE
  5
29
330
18
100
AcDbEntity
  8
0
  6
ByBlock
 62
     0
100
AcDbLine
 10
10.05044854229929
 20
-294.6427281721855
 30
0.0
 11
10.05044854229929
 21
-294.3693942921855
 31
0.0
  0
LINE
  5
2A
330
18
100
AcDbEntity
  8
0
  6
ByBlock
 62
     0
100
AcDbLine
 10
10.05044854229929
 20
-295.1893959321855
 30
0.0
 11
10.05044854229929
 21
-294.9293954121856
 31
0.0
  0
LINE
  5
2B
330
18
100
AcDbEntity
  8
0
  6
ByBlock
 62
     0
100
AcDbLine
 10
10.03774854229929
 20
-294.6427281721855
 30
0.0
 11
10.03774854229929
 21
-294.3693942921855
 31
0.0
  0
LINE
  5
2C
330
18
100
AcDbEntity
  8
0
  6
ByBlock
 62
     0
100
AcDbLine
 10
10.03774854229929
 20
-295.1893959321855
 30
0.0
 11
10.03774854229929
 21
-294.9293954121856
 31
0.0
  0
LINE
  5
2D
330
18
100
AcDbEntity
  8
0
  6
ByBlock
 62
     0
100
AcDbLine
 10
10.0250485422993
 20
-294.6427281721855
 30
0.0
 11
10.0250485422993
 21
-294.3693942921855
 31
0.0
  0
LINE
  5
2E
330
18
100
AcDbEntity
  8
0
  6
ByBlock
 62
     0
100
AcDbLine
 10
10.0250485422993
 20
-295.1893959321855
 30
0.0
 11
10.0250485422993
 21
-294.9293954121856
 31
0.0
  0
LINE
  5
2F
330
18
100
AcDbEntity
  8
0
  6
ByBlock
 62
     0
100
AcDbLine
 10
10.01234854229927
 20
-294.6427281721855
 30
0.0
 11
10.01234854229927
 21
-294.3693942921855
 31
0.0
  0
LINE
  5
30
330
18
100
AcDbEntity
  8
0
  6
ByBlock
 62
     0
100
AcDbLine
 10
10.01234854229927
 20
-295.1893959321855
 30
0.0
 11
10.01234854229927
 21
-294.9293954121856
 31
0.0
  0
LINE
  5
31
330
18
100
AcDbEntity
  8
0
  6
ByBlock
 62
     0
100
AcDbLine
 10
9.999648542299276
 20
-294.6427281721855
 30
0.0
 11
9.999648542299276
 21
-294.3693942921855
 31
0.0
  0
LINE
  5
32
330
18
100
AcDbEntity
  8
0
  6
ByBlock
 62
     0
100
AcDbLine
 10
9.999648542299276
 20
-295.1893959321855
 30
0.0
 11
9.999648542299276
 21
-294.9293954121856
 31
0.0
  0
LINE
  5
33
330
18
100
AcDbEntity
  8
0
  6
ByBlock
 62
     0
100
AcDbLine
 10
9.986948542299281
 20
-294.6427281721855
 30
0.0
 11
9.986948542299281
 21
-294.3693942921855
 31
0.0
  0
LINE
  5
34
330
18
100
AcDbEntity
  8
0
  6
ByBlock
 62
     0
100
AcDbLine
 10
9.986948542299281
 20
-295.1893959321855
 30
0.0
 11
9.986948542299281
 21
-294.9293954121856
 31
0.0
  0
LINE
  5
35
330
18
100
AcDbEntity
  8
0
  6
ByBlock
 62
     0
100
AcDbLine
 10
9.974248542299286
 20
-294.6427281721855
 30
0.0
 11
9.974248542299286
 21
-294.3693942921855
 31
0.0
  0
LINE
  5
36
330
18
100
AcDbEntity
  8
0
  6
ByBlock
 62
     0
100
AcDbLine
 10
9.974248542299286
 20
-295.1893959321855
 30
0.0
 11
9.974248542299286
 21
-294.9293954121856
 31
0.0
  0
LINE
  5
37
330
18
100
AcDbEntity
  8
0
  6
ByBlock
 62
     0
100
AcDbLine
 10
9.96154854229929
 20
-294.6427281721855
 30
0.0
 11
9.96154854229929
 21
-294.3693942921855
 31
0.0
  0
LINE
  5
38
330
18
100
AcDbEntity
  8
0
  6
ByBlock
 62
     0
100
AcDbLine
 10
9.96154854229929
 20
-295.1893959321855
 30
0.0
 11
9.96154854229929
 21
-294.9293954121856
 31
0.0
  0
LINE
  5
39
330
18
100
AcDbEntity
  8
0
  6
ByBlock
 62
     0
100
AcDbLine
 10
9.948848542299295
 20
-294.6427281721855
 30
0.0
 11
9.948848542299295
 21
-294.3693942921855
 31
0.0
  0
LINE
  5
3A
330
18
100
AcDbEntity
  8
0
  6
ByBlock
 62
     0
100
AcDbLine
 10
9.948848542299295
 20
-295.1893959321855
 30
0.0
 11
9.948848542299295
 21
-294.9293954121856
 31
0.0
  0
LINE
  5
3B
330
18
100
AcDbEntity
  8
0
  6
ByBlock
 62
     0
100
AcDbLine
 10
9.936148542299271
 20
-294.6427281721855
 30
0.0
 11
9.936148542299271
 21
-294.3693942921855
 31
0.0
  0
LINE
  5
3C
330
18
100
AcDbEntity
  8
0
  6
ByBlock
 62
     0
100
AcDbLine
 10
9.936148542299271
 20
-295.1893959321855
 30
0.0
 11
9.936148542299271
 21
-294.9293954121856
 31
0.0
  0
LINE
  5
3D
330
18
100
AcDbEntity
  8
0
  6
ByBlock
 62
     0
100
AcDbLine
 10
9.923448542299276
 20
-294.6427281721855
 30
0.0
 11
9.923448542299276
 21
-294.3693942921855
 31
0.0
  0
LINE
  5
3E
330
18
100
AcDbEntity
  8
0
  6
ByBlock
 62
     0
100
AcDbLine
 10
9.923448542299276
 20
-295.1893959321855
 30
0.0
 11
9.923448542299276
 21
-294.9293954121856
 31
0.0
  0
LINE
  5
3F
330
18
100
AcDbEntity
  8
0
  6
ByBlock
 62
     0
100
AcDbLine
 10
9.910748542299281
 20
-294.6427281721855
 30
0.0
 11
9.910748542299281
 21
-294.3693942921855
 31
0.0
  0
LINE
  5
40
330
18
100
AcDbEntity
  8
0
  6
ByBlock
 62
     0
100
AcDbLine
 10
9.910748542299281
 20
-295.1893959321855
 30
0.0
 11
9.910748542299281
 21
-294.9293954121856
 31
0.0
  0
LINE
  5
41
330
18
100
AcDbEntity
  8
0
  6
ByBlock
 62
     0
100
AcDbLine
 10
9.898048542299286
 20
-294.6427281721855
 30
0.0
 11
9.898048542299286
 21
-294.3693942921855
 31
0.0
  0
LINE
  5
42
330
18
100
AcDbEntity
  8
0
  6
ByBlock
 62
     0
100
AcDbLine
 10
9.898048542299286
 20
-295.1893959321855
 30
0.0
 11
9.898048542299286
 21
-294.9293954121856
 31
0.0
  0
LINE
  5
43
330
18
100
AcDbEntity
  8
0
  6
ByBlock
 62
     0
100
AcDbLine
 10
9.88534854229929
 20
-294.6427281721855
 30
0.0
 11
9.88534854229929
 21
-294.3693942921855
 31
0.0
  0
LINE
  5
44
330
18
100
AcDbEntity
  8
0
  6
ByBlock
 62
     0
100
AcDbLine
 10
9.88534854229929
 20
-295.1893959321855
 30
0.0
 11
9.88534854229929
 21
-294.9293954121856
 31
0.0
  0
LINE
  5
45
330
18
100
AcDbEntity
  8
0
  6
ByBlock
 62
     0
100
AcDbLine
 10
9.872648542299295
 20
-294.6427281721855
 30
0.0
 11
9.872648542299295
 21
-294.3693942921855
 31
0.0
  0
LINE
  5
46
330
18
100
AcDbEntity
  8
0
  6
ByBlock
 62
     0
100
AcDbLine
 10
9.872648542299295
 20
-295.1893959321855
 30
0.0
 11
9.872648542299295
 21
-294.9293954121856
 31
0.0
  0
LINE
  5
47
330
18
100
AcDbEntity
  8
0
  6
ByBlock
 62
     0
100
AcDbLine
 10
9.859948542299271
 20
-294.6427281721855
 30
0.0
 11
9.859948542299271
 21
-294.3693942921855
 31
0.0
  0
LINE
  5
48
330
18
100
AcDbEntity
  8
0
  6
ByBlock
 62
     0
100
AcDbLine
 10
9.859948542299271
 20
-295.1893959321855
 30
0.0
 11
9.859948542299271
 21
-294.9293954121856
 31
0.0
  0
LINE
  5
49
330
18
100
AcDbEntity
  8
0
  6
ByBlock
 62
     0
100
AcDbLine
 10
9.847248542299276
 20
-294.6427281721855
 30
0.0
 11
9.847248542299276
 21
-294.3693942921855
 31
0.0
  0
LINE
  5
4A
330
18
100
AcDbEntity
  8
0
  6
ByBlock
 62
     0
100
AcDbLine
 10
9.847248542299276
 20
-295.1893959321855
 30
0.0
 11
9.847248542299276
 21
-294.9293954121856
 31
0.0
  0
LINE
  5
4B
330
18
100
AcDbEntity
  8
0
  6
ByBlock
 62
     0
100
AcDbLine
 10
9.83454854229928
 20
-294.6427281721855
 30
0.0
 11
9.83454854229928
 21
-294.3693942921855
 31
0.0
  0
LINE
  5
4C
330
18
100
AcDbEntity
  8
0
  6
ByBlock
 62
     0
100
AcDbLine
 10
9.83454854229928
 20
-295.1893959321855
 30
0.0
 11
9.83454854229928
 21
-294.9293954121856
 31
0.0
  0
LINE
  5
4D
330
18
100
AcDbEntity
  8
0
  6
ByBlock
 62
     0
100
AcDbLine
 10
9.821848542299286
 20
-294.6427281721855
 30
0.0
 11
9.821848542299286
 21
-294.3693942921855
 31
0.0
  0
LINE
  5
4E
330
18
100
AcDbEntity
  8
0
  6
ByBlock
 62
     0
100
AcDbLine
 10
9.821848542299286
 20
-295.1893959321855
 30
0.0
 11
9.821848542299286
 21
-294.9293954121856
 31
0.0
  0
LINE
  5
4F
330
18
100
AcDbEntity
  8
0
  6
ByBlock
 62
     0
100
AcDbLine
 10
9.80914854229929
 20
-294.6427281721855
 30
0.0
 11
9.80914854229929
 21
-294.3693942921855
 31
0.0
  0
LINE
  5
50
330
18
100
AcDbEntity
  8
0
  6
ByBlock
 62
     0
100
AcDbLine
 10
9.80914854229929
 20
-295.1893959321855
 30
0.0
 11
9.80914854229929
 21
-294.9293954121856
 31
0.0
  0
LINE
  5
51
330
18
100
AcDbEntity
  8
0
  6
ByBlock
 62
     0
100
AcDbLine
 10
9.796448542299295
 20
-294.6427281721855
 30
0.0
 11
9.796448542299295
 21
-294.3693942921855
 31
0.0
  0
LINE
  5
52
330
18
100
AcDbEntity
  8
0
  6
ByBlock
 62
     0
100
AcDbLine
 10
9.796448542299295
 20
-295.1893959321855
 30
0.0
 11
9.796448542299295
 21
-294.9293954121856
 31
0.0
  0
LINE
  5
53
330
18
100
AcDbEntity
  8
0
  6
ByBlock
 62
     0
100
AcDbLine
 10
9.783748542299271
 20
-294.6427281721855
 30
0.0
 11
9.783748542299271
 21
-294.3693942921855
 31
0.0
  0
LINE
  5
54
330
18
100
AcDbEntity
  8
0
  6
ByBlock
 62
     0
100
AcDbLine
 10
9.783748542299271
 20
-295.1893959321855
 30
0.0
 11
9.783748542299271
 21
-294.9293954121856
 31
0.0
  0
LINE
  5
55
330
18
100
AcDbEntity
  8
0
  6
ByBlock
 62
     0
100
AcDbLine
 10
9.771048542299276
 20
-294.6427281721855
 30
0.0
 11
9.771048542299276
 21
-294.3693942921855
 31
0.0
  0
LINE
  5
56
330
18
100
AcDbEntity
  8
0
  6
ByBlock
 62
     0
100
AcDbLine
 10
9.771048542299276
 20
-295.1893959321855
 30
0.0
 11
9.771048542299276
 21
-294.9293954121856
 31
0.0
  0
LINE
  5
57
330
18
100
AcDbEntity
  8
0
  6
ByBlock
 62
     0
100
AcDbLine
 10
9.75834854229928
 20
-294.6427281721855
 30
0.0
 11
9.75834854229928
 21
-294.3693942921855
 31
0.0
  0
LINE
  5
58
330
18
100
AcDbEntity
  8
0
  6
ByBlock
 62
     0
100
AcDbLine
 10
9.75834854229928
 20
-295.1893959321855
 30
0.0
 11
9.75834854229928
 21
-294.9293954121856
 31
0.0
  0
LINE
  5
59
330
18
100
AcDbEntity
  8
0
  6
ByBlock
 62
     0
100
AcDbLine
 10
9.745648542299286
 20
-294.6427281721855
 30
0.0
 11
9.745648542299286
 21
-294.3693942921855
 31
0.0
  0
LINE
  5
5A
330
18
100
AcDbEntity
  8
0
  6
ByBlock
 62
     0
100
AcDbLine
 10
9.745648542299286
 20
-295.1893959321855
 30
0.0
 11
9.745648542299286
 21
-294.9293954121856
 31
0.0
  0
LINE
  5
5B
330
18
100
AcDbEntity
  8
0
  6
ByBlock
 62
     0
100
AcDbLine
 10
9.73294854229929
 20
-294.6427281721855
 30
0.0
 11
9.73294854229929
 21
-294.3693942921855
 31
0.0
  0
LINE
  5
5C
330
18
100
AcDbEntity
  8
0
  6
ByBlock
 62
     0
100
AcDbLine
 10
9.73294854229929
 20
-295.1893959321855
 30
0.0
 11
9.73294854229929
 21
-294.9293954121856
 31
0.0
  0
LINE
  5
5D
330
18
100
AcDbEntity
  8
0
  6
ByBlock
 62
     0
100
AcDbLine
 10
9.720248542299295
 20
-294.6427281721855
 30
0.0
 11
9.720248542299295
 21
-294.3693942921855
 31
0.0
  0
LINE
  5
5E
330
18
100
AcDbEntity
  8
0
  6
ByBlock
 62
     0
100
AcDbLine
 10
9.720248542299295
 20
-295.1893959321855
 30
0.0
 11
9.720248542299295
 21
-294.9293954121856
 31
0.0
  0
LINE
  5
5F
330
18
100
AcDbEntity
  8
0
  6
ByBlock
 62
     0
100
AcDbLine
 10
9.707548542299271
 20
-294.6427281721855
 30
0.0
 11
9.707548542299271
 21
-294.3693942921855
 31
0.0
  0
LINE
  5
60
330
18
100
AcDbEntity
  8
0
  6
ByBlock
 62
     0
100
AcDbLine
 10
9.707548542299271
 20
-295.1893959321855
 30
0.0
 11
9.707548542299271
 21
-294.9293954121856
 31
0.0
  0
LINE
  5
61
330
18
100
AcDbEntity
  8
0
  6
ByBlock
 62
     0
100
AcDbLine
 10
9.694848542299276
 20
-294.6427281721855
 30
0.0
 11
9.694848542299276
 21
-294.3693942921855
 31
0.0
  0
LINE
  5
62
330
18
100
AcDbEntity
  8
0
  6
ByBlock
 62
     0
100
AcDbLine
 10
9.694848542299276
 20
-295.1893959321855
 30
0.0
 11
9.694848542299276
 21
-294.9293954121856
 31
0.0
  0
LINE
  5
63
330
18
100
AcDbEntity
  8
0
  6
ByBlock
 62
     0
100
AcDbLine
 10
9.68214854229928
 20
-294.6427281721855
 30
0.0
 11
9.68214854229928
 21
-294.3693942921855
 31
0.0
  0
LINE
  5
64
330
18
100
AcDbEntity
  8
0
  6
ByBlock
 62
     0
100
AcDbLine
 10
9.68214854229928
 20
-295.1893959321855
 30
0.0
 11
9.68214854229928
 21
-294.9293954121856
 31
0.0
  0
LINE
  5
65
330
18
100
AcDbEntity
  8
0
  6
ByBlock
 62
     0
100
AcDbLine
 10
9.669448542299286
 20
-294.6427281721855
 30
0.0
 11
9.669448542299286
 21
-294.3693942921855
 31
0.0
  0
LINE
  5
66
330
18
100
AcDbEntity
  8
0
  6
ByBlock
 62
     0
100
AcDbLine
 10
9.669448542299286
 20
-295.1893959321855
 30
0.0
 11
9.669448542299286
 21
-294.9293954121856
 31
0.0
  0
LINE
  5
67
330
18
100
AcDbEntity
  8
0
  6
ByBlock
 62
     0
100
AcDbLine
 10
9.65674854229929
 20
-294.6427281721855
 30
0.0
 11
9.65674854229929
 21
-294.3693942921855
 31
0.0
  0
LINE
  5
68
330
18
100
AcDbEntity
  8
0
  6
ByBlock
 62
     0
100
AcDbLine
 10
9.65674854229929
 20
-295.1893959321855
 30
0.0
 11
9.65674854229929
 21
-294.9293954121856
 31
0.0
  0
LINE
  5
69
330
18
100
AcDbEntity
  8
0
  6
ByBlock
 62
     0
100
AcDbLine
 10
9.644048542299295
 20
-294.6427281721855
 30
0.0
 11
9.644048542299295
 21
-294.3693942921855
 31
0.0
  0
LINE
  5
6A
330
18
100
AcDbEntity
  8
0
  6
ByBlock
 62
     0
100
AcDbLine
 10
9.644048542299295
 20
-295.1893959321855
 30
0.0
 11
9.644048542299295
 21
-294.9293954121856
 31
0.0
  0
LINE
  5
6B
330
18
100
AcDbEntity
  8
0
  6
ByBlock
 62
     0
100
AcDbLine
 10
9.631348542299271
 20
-294.6427281721855
 30
0.0
 11
9.631348542299271
 21
-294.3693942921855
 31
0.0
  0
LINE
  5
6C
330
18
100
AcDbEntity
  8
0
  6
ByBlock
 62
     0
100
AcDbLine
 10
9.631348542299271
 20
-295.1893959321855
 30
0.0
 11
9.631348542299271
 21
-294.9293954121856
 31
0.0
  0
LINE
  5
6D
330
18
100
AcDbEntity
  8
0
  6
ByBlock
 62
     0
100
AcDbLine
 10
9.618648542299276
 20
-294.6427281721855
 30
0.0
 11
9.618648542299276
 21
-294.3693942921855
 31
0.0
  0
LINE
  5
6E
330
18
100
AcDbEntity
  8
0
  6
ByBlock
 62
     0
100
AcDbLine
 10
9.618648542299276
 20
-295.1893959321855
 30
0.0
 11
9.618648542299276
 21
-294.9293954121856
 31
0.0
  0
LINE
  5
6F
330
18
100
AcDbEntity
  8
0
  6
ByBlock
 62
     0
100
AcDbLine
 10
9.60594854229928
 20
-294.6427281721855
 30
0.0
 11
9.60594854229928
 21
-294.3693942921855
 31
0.0
  0
LINE
  5
70
330
18
100
AcDbEntity
  8
0
  6
ByBlock
 62
     0
100
AcDbLine
 10
9.60594854229928
 20
-295.1893959321855
 30
0.0
 11
9.60594854229928
 21
-294.9293954121856
 31
0.0
  0
LINE
  5
71
330
18
100
AcDbEntity
  8
0
  6
ByBlock
 62
     0
100
AcDbLine
 10
9.593248542299285
 20
-294.6427281721855
 30
0.0
 11
9.593248542299285
 21
-294.3693942921855
 31
0.0
  0
LINE
  5
72
330
18
100
AcDbEntity
  8
0
  6
ByBlock
 62
     0
100
AcDbLine
 10
9.593248542299285
 20
-295.1893959321855
 30
0.0
 11
9.593248542299285
 21
-294.9293954121856
 31
0.0
  0
LINE
  5
73
330
18
100
AcDbEntity
  8
0
  6
ByBlock
 62
     0
100
AcDbLine
 10
9.58054854229929
 20
-294.6427281721855
 30
0.0
 11
9.58054854229929
 21
-294.3693942921855
 31
0.0
  0
LINE
  5
74
330
18
100
AcDbEntity
  8
0
  6
ByBlock
 62
     0
100
AcDbLine
 10
9.58054854229929
 20
-295.1893959321855
 30
0.0
 11
9.58054854229929
 21
-294.9293954121856
 31
0.0
  0
LINE
  5
75
330
18
100
AcDbEntity
  8
0
  6
ByBlock
 62
     0
100
AcDbLine
 10
9.567848542299295
 20
-294.6427281721855
 30
0.0
 11
9.567848542299295
 21
-294.3693942921855
 31
0.0
  0
LINE
  5
76
330
18
100
AcDbEntity
  8
0
  6
ByBlock
 62
     0
100
AcDbLine
 10
9.567848542299295
 20
-295.1893959321855
 30
0.0
 11
9.567848542299295
 21
-294.9293954121856
 31
0.0
  0
LINE
  5
77
330
18
100
AcDbEntity
  8
0
  6
ByBlock
 62
     0
100
AcDbLine
 10
9.555148542299271
 20
-294.6427281721855
 30
0.0
 11
9.555148542299271
 21
-294.3693942921855
 31
0.0
  0
LINE
  5
78
330
18
100
AcDbEntity
  8
0
  6
ByBlock
 62
     0
100
AcDbLine
 10
9.555148542299271
 20
-295.1893959321855
 30
0.0
 11
9.555148542299271
 21
-294.9293954121856
 31
0.0
  0
LINE
  5
79
330
18
100
AcDbEntity
  8
0
  6
ByBlock
 62
     0
100
AcDbLine
 10
9.542448542299276
 20
-294.6427281721855
 30
0.0
 11
9.542448542299276
 21
-294.3693942921855
 31
0.0
  0
LINE
  5
7A
330
18
100
AcDbEntity
  8
0
  6
ByBlock
 62
     0
100
AcDbLine
 10
9.542448542299276
 20
-295.1893959321855
 30
0.0
 11
9.542448542299276
 21
-294.9293954121856
 31
0.0
  0
LINE
  5
7B
330
18
100
AcDbEntity
  8
0
  6
ByBlock
 62
     0
100
AcDbLine
 10
9.52974854229928
 20
-294.6427281721855
 30
0.0
 11
9.52974854229928
 21
-294.3693942921855
 31
0.0
  0
LINE
  5
7C
330
18
100
AcDbEntity
  8
0
  6
ByBlock
 62
     0
100
AcDbLine
 10
9.52974854229928
 20
-295.1893959321855
 30
0.0
 11
9.52974854229928
 21
-294.9293954121856
 31
0.0
  0
LINE
  5
7D
330
18
100
AcDbEntity
  8
0
  6
ByBlock
 62
     0
100
AcDbLine
 10
9.517048542299285
 20
-294.6427281721855
 30
0.0
 11
9.517048542299285
 21
-294.3693942921855
 31
0.0
  0
LINE
  5
7E
330
18
100
AcDbEntity
  8
0
  6
ByBlock
 62
     0
100
AcDbLine
 10
9.517048542299285
 20
-295.1893959321855
 30
0.0
 11
9.517048542299285
 21
-294.9293954121856
 31
0.0
  0
LINE
  5
7F
330
18
100
AcDbEntity
  8
0
  6
ByBlock
 62
     0
100
AcDbLine
 10
9.50434854229929
 20
-294.6427281721855
 30
0.0
 11
9.50434854229929
 21
-294.3693942921855
 31
0.0
  0
LINE
  5
80
330
18
100
AcDbEntity
  8
0
  6
ByBlock
 62
     0
100
AcDbLine
 10
9.50434854229929
 20
-295.1893959321855
 30
0.0
 11
9.50434854229929
 21
-294.9293954121856
 31
0.0
  0
LINE
  5
81
330
18
100
AcDbEntity
  8
0
  6
ByBlock
 62
     0
100
AcDbLine
 10
9.491648542299295
 20
-294.6427281721855
 30
0.0
 11
9.491648542299295
 21
-294.3693942921855
 31
0.0
  0
LINE
  5
82
330
18
100
AcDbEntity
  8
0
  6
ByBlock
 62
     0
100
AcDbLine
 10
9.491648542299295
 20
-295.1893959321855
 30
0.0
 11
9.491648542299295
 21
-294.9293954121856
 31
0.0
  0
LINE
  5
83
330
18
100
AcDbEntity
  8
0
  6
ByBlock
 62
     0
100
AcDbLine
 10
9.478948542299271
 20
-295.7693970921855
 30
0.0
 11
9.478948542299271
 21
-294.3693942921855
 31
0.0
  0
LINE
  5
84
330
18
100
AcDbEntity
  8
0
  6
ByBlock
 62
     0
100
AcDbLine
 10
9.466248542299276
 20
-295.7693970921855
 30
0.0
 11
9.466248542299276
 21
-294.3693942921855
 31
0.0
  0
LINE
  5
85
330
18
100
AcDbEntity
  8
0
  6
ByBlock
 62
     0
100
AcDbLine
 10
9.45354854229928
 20
-295.7693970921855
 30
0.0
 11
9.45354854229928
 21
-294.3693942921855
 31
0.0
  0
LINE
  5
86
330
18
100
AcDbEntity
  8
0
  6
ByBlock
 62
     0
100
AcDbLine
 10
9.440848542299285
 20
-295.7693970921855
 30
0.0
 11
9.440848542299285
 21
-294.3693942921855
 31
0.0
  0
LINE
  5
87
330
18
100
AcDbEntity
  8
0
  6
ByBlock
 62
     0
100
AcDbLine
 10
9.42814854229929
 20
-295.7693970921855
 30
0.0
 11
9.42814854229929
 21
-294.3693942921855
 31
0.0
  0
LINE
  5
88
330
18
100
AcDbEntity
  8
0
  6
ByBlock
 62
     0
100
AcDbLine
 10
9.415448542299295
 20
-295.7693970921855
 30
0.0
 11
9.415448542299295
 21
-294.3693942921855
 31
0.0
  0
LINE
  5
89
330
18
100
AcDbEntity
  8
0
  6
ByBlock
 62
     0
100
AcDbLine
 10
9.402748542299271
 20
-295.7693970921855
 30
0.0
 11
9.402748542299271
 21
-294.3693942921855
 31
0.0
  0
LINE
  5
8A
330
18
100
AcDbEntity
  8
0
  6
ByBlock
 62
     0
100
AcDbLine
 10
9.390048542299276
 20
-295.7693970921855
 30
0.0
 11
9.390048542299276
 21
-294.3693942921855
 31
0.0
  0
LINE
  5
8B
330
18
100
AcDbEntity
  8
0
  6
ByBlock
 62
     0
100
AcDbLine
 10
9.37734854229928
 20
-295.7693970921855
 30
0.0
 11
9.37734854229928
 21
-294.3693942921855
 31
0.0
  0
LINE
  5
8C
330
18
100
AcDbEntity
  8
0
  6
ByBlock
 62
     0
100
AcDbLine
 10
9.364648542299285
 20
-295.7693970921855
 30
0.0
 11
9.364648542299285
 21
-294.3693942921855
 31
0.0
  0
LINE
  5
8D
330
18
100
AcDbEntity
  8
0
  6
ByBlock
 62
     0
100
AcDbLine
 10
9.35194854229929
 20
-295.7693970921855
 30
0.0
 11
9.35194854229929
 21
-294.3693942921855
 31
0.0
  0
LINE
  5
8E
330
18
100
AcDbEntity
  8
0
  6
ByBlock
 62
     0
100
AcDbLine
 10
9.339248542299295
 20
-295.7693970921855
 30
0.0
 11
9.339248542299295
 21
-294.3693942921855
 31
0.0
  0
LINE
  5
8F
330
18
100
AcDbEntity
  8
0
  6
ByBlock
 62
     0
100
AcDbLine
 10
9.326548542299271
 20
-295.7693970921855
 30
0.0
 11
9.326548542299271
 21
-294.3693942921855
 31
0.0
  0
LINE
  5
90
330
18
100
AcDbEntity
  8
0
  6
ByBlock
 62
     0
100
AcDbLine
 10
9.313848542299276
 20
-295.7693970921855
 30
0.0
 11
9.313848542299276
 21
-294.3693942921855
 31
0.0
  0
LINE
  5
91
330
18
100
AcDbEntity
  8
0
  6
ByBlock
 62
     0
100
AcDbLine
 10
9.30114854229928
 20
-295.7693970921855
 30
0.0
 11
9.30114854229928
 21
-294.3693942921855
 31
0.0
  0
LINE
  5
92
330
18
100
AcDbEntity
  8
0
  6
ByBlock
 62
     0
100
AcDbLine
 10
9.288448542299285
 20
-295.7693970921855
 30
0.0
 11
9.288448542299285
 21
-294.3693942921855
 31
0.0
  0
LINE
  5
93
330
18
100
AcDbEntity
  8
0
  6
ByBlock
 62
     0
100
AcDbLine
 10
9.27574854229929
 20
-295.7693970921855
 30
0.0
 11
9.27574854229929
 21
-294.3693942921855
 31
0.0
  0
LINE
  5
94
330
18
100
AcDbEntity
  8
0
  6
ByBlock
 62
     0
100
AcDbLine
 10
9.263048542299295
 20
-295.7693970921855
 30
0.0
 11
9.263048542299295
 21
-294.3693942921855
 31
0.0
  0
LINE
  5
95
330
18
100
AcDbEntity
  8
0
  6
ByBlock
 62
     0
100
AcDbLine
 10
9.250348542299271
 20
-295.7693970921855
 30
0.0
 11
9.250348542299271
 21
-294.3693942921855
 31
0.0
  0
LINE
  5
96
330
18
100
AcDbEntity
  8
0
  6
ByBlock
 62
     0
100
AcDbLine
 10
9.237648542299276
 20
-295.7693970921855
 30
0.0
 11
9.237648542299276
 21
-294.3693942921855
 31
0.0
  0
LINE
  5
97
330
18
100
AcDbEntity
  8
0
  6
ByBlock
 62
     0
100
AcDbLine
 10
9.22494854229928
 20
-295.7693970921855
 30
0.0
 11
9.22494854229928
 21
-294.3693942921855
 31
0.0
  0
LINE
  5
98
330
18
100
AcDbEntity
  8
0
  6
ByBlock
 62
     0
100
AcDbLine
 10
9.212248542299285
 20
-295.7693970921855
 30
0.0
 11
9.212248542299285
 21
-294.3693942921855
 31
0.0
  0
LWPOLYLINE
  5
99
330
18
100
AcDbEntity
  8
0
  6
ByBlock
 62
     0
100
AcDbPolyline
 90
       10
 70
     1
 43
0.0
 10
9.490738410072886
 20
-295.7693970921855
 10
9.490738410072886
 20
-295.1893959321855
 10
10.06407289007291
 20
-295.1893959321855
 10
10.06407289007291
 20
-294.9293954121856
 10
9.490738410072886
 20
-294.9293954121856
 10
9.490738410072886
 20
-294.6427281721855
 10
10.12407301007287
 20
-294.6427281721855
 10
10.12407301007287
 20
-294.3693942921855
 10
9.2040711700729
 20
-294.3693942921855
 10
9.2040711700729
 20
-295.7693970921855
  0
ATTDEF
  5
A5
330
18
100
AcDbEntity
  8
0
  6
Continuous
 62
     7
100
AcDbText
 10
8.980737390072882
 20
-295.7693970921855
 30
0.0
 40
0.1
  1
1.21
  7
FON
100
AcDbAttributeDefinition
  3

  2
W
 70
     9
280
     0
 71
     1
 72
     0
 11
0.0
 21
0.0
 31
0.0
  0
ENDSEC
  0
SECTION
  2
OBJECTS
  0
DICTIONARY
  5
C
330
0
100
AcDbDictionary
281
     1
  3
ACAD_DETAILVIEWSTYLE
350
E4
  3
ACAD_GROUP
350
D
  3
ACAD_LAYOUT
350
15
  3
ACAD_MATERIAL
350
D5
  3
ACAD_MLEADERSTYLE
350
DB
  3
ACAD_MLINESTYLE
350
12
  3
ACAD_PLOTSETTINGS
350
14
  3
ACAD_PLOTSTYLENAME
350
E
  3
ACAD_SCALELIST
350
AA
  3
ACAD_SECTIONVIEWSTYLE
350
E5
  3
ACAD_TABLESTYLE
350
D9
  3
ACAD_VISUALSTYLE
350
BC
  3
ACDB_RECOMPOSE_DATA
350
E1
  3
AcDbVariableDictionary
350
DD
  0
DICTIONARY
  5
E4
102
{ACAD_REACTORS
330
C
102
}
330
C
100
AcDbDictionary
281
     1
  0
DICTIONARY
  5
D
102
{ACAD_REACTORS
330
C
102
}
330
C
100
AcDbDictionary
281
     1
  0
DICTIONARY
  5
15
102
{ACAD_REACTORS
330
C
102
}
330
C
100
AcDbDictionary
281
     1
  3
Layout1
350
17
  3
Model
350
19
  0
DICTIONARY
  5
D5
102
{ACAD_REACTORS
330
C
102
}
330
C
100
AcDbDictionary
281
     1
  3
ByBlock
350
D7
  3
ByLayer
350
D6
  3
Global
350
D8
  0
DICTIONARY
  5
DB
102
{ACAD_REACTORS
330
C
102
}
330
C
100
AcDbDictionary
281
     1
  3
Standard
350
DC
  0
DICTIONARY
  5
12
102
{ACAD_REACTORS
330
C
102
}
330
C
100
AcDbDictionary
281
     1
  3
Standard
350
13
  0
DICTIONARY
  5
14
102
{ACAD_REACTORS
330
C
102
}
330
C
100
AcDbDictionary
281
     1
  0
ACDBDICTIONARYWDFLT
  5
E
102
{ACAD_REACTORS
330
C
102
}
330
C
100
AcDbDictionary
281
     1
  3
Normal
350
F
100
AcDbDictionaryWithDefault
340
F
  0
DICTIONARY
  5
AA
102
{ACAD_REACTORS
330
C
102
}
330
C
100
AcDbDictionary
281
     1
  3
A0
350
AB
  3
A1
350
AC
  3
A2
350
AD
  3
A3
350
AE
  3
A4
350
AF
  3
A5
350
B0
  3
A6
350
B1
  3
A7
350
B2
  3
A8
350
B3
  3
A9
350
B4
  3
B1
350
B5
  3
B2
350
B6
  3
B3
350
B7
  3
B4
350
B8
  3
B5
350
B9
  3
B6
350
BA
  3
B7
350
BB
  0
DICTIONARY
  5
E5
102
{ACAD_REACTORS
330
C
102
}
330
C
100
AcDbDictionary
281
     1
  0
DICTIONARY
  5
D9
102
{ACAD_REACTORS
330
C
102
}
330
C
100
AcDbDictionary
281
     1
  3
Standard
350
DA
  0
DICTIONARY
  5
BC
102
{ACAD_REACTORS
330
C
102
}
330
C
100
AcDbDictionary
281
     1
  3
2dWireframe
350
C1
  3
Basic
350
C4
  3
Brighten
350
C8
  3
ColorChange
350
CC
  3
Conceptual
350
C6
  3
Dim
350
C7
  3
EdgeColorOff
350
CF
  3
Facepattern
350
CB
  3
Flat
350
BD
  3
FlatWithEdges
350
BE
  3
Gouraud
350
BF
  3
GouraudWithEdges
350
C0
  3
Hidden
350
C3
  3
JitterOff
350
CD
  3
Linepattern
350
CA
  3
OverhangOff
350
CE
  3
Realistic
350
C5
  3
Shaded
350
D4
  3
Shaded with edges
350
D3
  3
Shades of Gray
350
D0
  3
Sketchy
350
D1
  3
Thicken
350
C9
  3
Wireframe
350
C2
  3
X-Ray
350
D2
  0
XRECORD
  5
E1
102
{ACAD_REACTORS
330
C
102
}
330
C
100
AcDbXrecord
280
     1
 90
        1
330
DA
  0
DICTIONARY
  5
DD
102
{ACAD_REACTORS
330
C
102
}
330
C
100
AcDbDictionary
281
     1
  3
CANNOSCALE
350
DE
  3
CMLEADERSTYLE
350
E3
  3
CTABLESTYLE
350
E2
  0
LAYOUT
  5
17
102
{ACAD_REACTORS
330
15
102
}
330
15
100
AcDbPlotSettings
  1

  2
none_device
  4

  6

 40
0.0
 41
0.0
 42
0.0
 43
0.0
 44
0.0
 45
0.0
 46
0.0
 47
0.0
 48
0.0
 49
0.0
140
0.0
141
0.0
142
1.0
143
1.0
 70
   688
 72
     0
 73
     0
 74
     5
  7

 75
    16
 76
     0
 77
     2
 78
   300
147
1.0
148
0.0
149
0.0
100
AcDbLayout
  1
Layout1
 70
     0
 71
     1
 10
0.0
 20
0.0
 11
12.0
 21
9.0
 12
0.0
 22
0.0
 32
0.0
 14
1.000000000000000E+20
 24
1.000000000000000E+20
 34
1.000000000000000E+20
 15
-1.000000000000000E+20
 25
-1.000000000000000E+20
 35
-1.000000000000000E+20
146
0.0
 13
0.0
 23
0.0
 33
0.0
 16
1.0
 26
0.0
 36
0.0
 17
0.0
 27
1.0
 37
0.0
 76
     0
330
16
  0
LAYOUT
  5
19
102
{ACAD_REACTORS
330
15
102
}
330
15
100
AcDbPlotSettings
  1

  2
none_device
  4
Letter_(8.50_x_11.00_Inches)
  6

 40
6.35
 41
6.35
 42
6.35000508
 43
6.35000508
 44
215.9
 45
279.4
 46
0.0
 47
0.0
 48
0.0
 49
0.0
140
0.0
141
0.0
142
1.0
143
1.0
 70
  1712
 72
     0
 73
     0
 74
     0
  7

 75
     0
 76
     0
 77
     2
 78
   300
147
1.0
148
0.0
149
0.0
100
AcDbLayout
  1
Model
 70
     1
 71
     0
 10
0.0
 20
0.0
 11
600.0
 21
500.0
 12
8.980737390072882
 22
-295.7693970921855
 32
0.0
 14
8.982037390072872
 24
-295.7693970921855
 34
0.0
 15
10.12407301007287
 25
-294.3693942921855
 35
0.0
146
0.0
 13
0.0
 23
0.0
 33
0.0
 16
1.0
 26
0.0
 36
0.0
 17
0.0
 27
1.0
 37
0.0
 76
     0
330
18
331
1E
  0
MATERIAL
  5
D7
102
{ACAD_REACTORS
330
D5
102
}
330
D5
100
AcDbMaterial
  1
ByBlock
 72
     1
 94
      127
  0
MATERIAL
  5
D6
102
{ACAD_REACTORS
330
D5
102
}
330
D5
100
AcDbMaterial
  1
ByLayer
 72
     1
 94
      127
  0
MATERIAL
  5
D8
102
{ACAD_REACTORS
330
D5
102
}
330
D5
100
AcDbMaterial
  1
Global
 72
     1
 94
      127
  0
MLEADERSTYLE
  5
DC
102
{ACAD_REACTORS
330
DB
102
}
330
DB
100
AcDbMLeaderStyle
179
     2
170
     2
171
     1
172
     0
 90
        2
 40
0.0
 41
0.0
173
     1
 91
-1056964608
340
10
 92
       -2
290
     1
 42
0.09
291
     1
 43
0.36
  3
Standard
341
0
 44
0.18
300

342
20
174
     1
178
     6
175
     1
176
     0
 93
-1056964608
 45
0.18
292
     0
297
     0
 46
0.18
343
0
 94
-1056964608
 47
1.0
 49
1.0
140
1.0
293
     1
141
0.0
294
     1
177
     0
142
1.0
295
     0
296
     0
143
0.125
271
     0
272
     9
273
     9
298
     0
  0
MLINESTYLE
  5
13
102
{ACAD_REACTORS
330
12
102
}
330
12
100
AcDbMlineStyle
  2
Standard
 70
     0
  3

 62
   256
 51
90.0
 52
90.0
 71
     2
 49
0.5
 62
   256
  6
BYLAYER
 49
-0.5
 62
   256
  6
BYLAYER
  0
ACDBPLACEHOLDER
  5
F
102
{ACAD_REACTORS
330
E
102
}
330
E
  0
SCALE
  5
AB
102
{ACAD_REACTORS
330
AA
102
}
330
AA
100
AcDbScale
 70
     0
300
1:1
140
1.0
141
1.0
290
     1
  0
SCALE
  5
AC
102
{ACAD_REACTORS
330
AA
102
}
330
AA
100
AcDbScale
 70
     0
300
1/128" = 1'-0"
140
0.0078125
141
12.0
290
     0
  0
SCALE
  5
AD
102
{ACAD_REACTORS
330
AA
102
}
330
AA
100
AcDbScale
 70
     0
300
1/64" = 1'-0"
140
0.015625
141
12.0
290
     0
  0
SCALE
  5
AE
102
{ACAD_REACTORS
330
AA
102
}
330
AA
100
AcDbScale
 70
     0
300
1/32" = 1'-0"
140
0.03125
141
12.0
290
     0
  0
SCALE
  5
AF
102
{ACAD_REACTORS
330
AA
102
}
330
AA
100
AcDbScale
 70
     0
300
1/16" = 1'-0"
140
0.0625
141
12.0
290
     0
  0
SCALE
  5
B0
102
{ACAD_REACTORS
330
AA
102
}
330
AA
100
AcDbScale
 70
     0
300
3/32" = 1'-0"
140
0.09375
141
12.0
290
     0
  0
SCALE
  5
B1
102
{ACAD_REACTORS
330
AA
102
}
330
AA
100
AcDbScale
 70
     0
300
1/8" = 1'-0"
140
0.125
141
12.0
290
     0
  0
SCALE
  5
B2
102
{ACAD_REACTORS
330
AA
102
}
330
AA
100
AcDbScale
 70
     0
300
3/16" = 1'-0"
140
0.1875
141
12.0
290
     0
  0
SCALE
  5
B3
102
{ACAD_REACTORS
330
AA
102
}
330
AA
100
AcDbScale
 70
     0
300
1/4" = 1'-0"
140
0.25
141
12.0
290
     0
  0
SCALE
  5
B4
102
{ACAD_REACTORS
330
AA
102
}
330
AA
100
AcDbScale
 70
     0
300
3/8" = 1'-0"
140
0.375
141
12.0
290
     0
  0
SCALE
  5
B5
102
{ACAD_REACTORS
330
AA
102
}
330
AA
100
AcDbScale
 70
     0
300
1/2" = 1'-0"
140
0.5
141
12.0
290
     0
  0
SCALE
  5
B6
102
{ACAD_REACTORS
330
AA
102
}
330
AA
100
AcDbScale
 70
     0
300
3/4" = 1'-0"
140
0.75
141
12.0
290
     0
  0
SCALE
  5
B7
102
{ACAD_REACTORS
330
AA
102
}
330
AA
100
AcDbScale
 70
     0
300
1" = 1'-0"
140
1.0
141
12.0
290
     0
  0
SCALE
  5
B8
102
{ACAD_REACTORS
330
AA
102
}
330
AA
100
AcDbScale
 70
     0
300
1-1/2" = 1'-0"
140
1.5
141
12.0
290
     0
  0
SCALE
  5
B9
102
{ACAD_REACTORS
330
AA
102
}
330
AA
100
AcDbScale
 70
     0
300
3" = 1'-0"
140
3.0
141
12.0
290
     0
  0
SCALE
  5
BA
102
{ACAD_REACTORS
330
AA
102
}
330
AA
100
AcDbScale
 70
     0
300
6" = 1'-0"
140
6.0
141
12.0
290
     0
  0
SCALE
  5
BB
102
{ACAD_REACTORS
330
AA
102
}
330
AA
100
AcDbScale
 70
     0
300
1'-0" = 1'-0"
140
12.0
141
12.0
290
     0
  0
TABLESTYLE
  5
DA
102
{ACAD_REACTORS
330
D9
102
}
102
{ACAD_XDICTIONARY
360
DF
102
}
330
D9
100
AcDbTableStyle
  3
Standard
 70
     0
 71
     0
 40
0.06
 41
0.06
280
     0
281
     0
  7
STANDARD
140
0.18
170
     2
 62
     0
 63
   257
283
     0
 90
        4
 91
        0
  1

274
    -2
284
     1
 64
     0
275
    -2
285
     1
 65
     0
276
    -2
286
     1
 66
     0
277
    -2
287
     1
 67
     0
278
    -2
288
     1
 68
     0
279
    -2
289
     1
 69
     0
  7
STANDARD
140
0.25
170
     5
 62
     0
 63
   257
283
     0
 90
        4
 91
        0
  1

274
    -2
284
     1
 64
     0
275
    -2
285
     1
 65
     0
276
    -2
286
     1
 66
     0
277
    -2
287
     1
 67
     0
278
    -2
288
     1
 68
     0
279
    -2
289
     1
 69
     0
  7
STANDARD
140
0.18
170
     5
 62
     0
 63
   257
283
     0
 90
        4
 91
        0
  1

274
    -2
284
     1
 64
     0
275
    -2
285
     1
 65
     0
276
    -2
286
     1
 66
     0
277
    -2
287
     1
 67
     0
278
    -2
288
     1
 68
     0
279
    -2
289
     1
 69
     0
  0
VISUALSTYLE
  5
C1
102
{ACAD_REACTORS
330
BC
102
}
330
BC
100
AcDbVisualStyle
  2
2dWireframe
 70
     4
177
     3
291
     0
 70
    58
 90
        0
176
     1
 90
        2
176
     1
 90
        0
176
     1
 90
        0
176
     1
 40
0.6
176
     1
 40
30.0
176
     1
 62
     7
420
 16777215
176
     1
 90
        1
176
     1
 90
        4
176
     1
 62
     7
176
     1
 62
   257
176
     1
 90
        1
176
     1
 90
        1
176
     1
 40
1.0
176
     1
 90
        0
176
     1
 62
   257
176
     1
 40
1.0
176
     1
 90
        1
176
     1
 90
        6
176
     1
 90
        2
176
     1
 62
     7
176
     1
 90
        5
176
     1
 90
        0
176
     1
 90
        0
176
     1
290
     0
176
     1
 90
        1
176
     1
 40
0.0
176
     1
 90
        0
176
     1
290
     1
176
     1
290
     1
176
     1
290
     0
176
     1
290
     0
176
     1
290
     0
176
     1
290
     0
176
     1
290
     0
176
     1
290
     0
176
     1
290
     0
176
     1
 90
       50
176
     1
 40
0.0
176
     1
 40
1.0
176
     1
 90
        0
176
     1
 62
    18
420
        0
176
     1
 90
       50
176
     1
 90
        3
176
     1
 62
     5
420
      255
176
     1
290
     0
176
     1
 90
       50
176
     1
 90
       50
176
     1
 90
       50
176
     1
290
     0
176
     1
 90
       50
176
     1
 62
   256
176
     0
 40
1.0
176
     0
 90
        2
176
     1
  1
strokes_ogs.tif
176
     1
290
     0
176
     1
 40
1.0
176
     1
 40
1.0
176
     1
  0
VISUALSTYLE
  5
C4
102
{ACAD_REACTORS
330
BC
102
}
330
BC
100
AcDbVisualStyle
  2
Basic
 70
     7
177
     3
291
     1
 70
    58
 90
        1
176
     1
 90
        0
176
     1
 90
        1
176
     1
 90
        0
176
     1
 40
0.6
176
     1
 40
30.0
176
     1
 62
     7
420
 16777215
176
     1
 90
        0
176
     1
 90
        4
176
     1
 62
     7
176
     1
 62
   257
176
     1
 90
        1
176
     1
 90
        1
176
     1
 40
1.0
176
     1
 90
        8
176
     1
 62
     7
176
     1
 40
1.0
176
     1
 90
        1
176
     1
 90
        6
176
     1
 90
        2
176
     1
 62
     7
176
     1
 90
        5
176
     1
 90
        0
176
     1
 90
        0
176
     1
290
     0
176
     1
 90
        1
176
     1
 40
0.0
176
     1
 90
        0
176
     1
290
     0
176
     1
290
     1
176
     1
290
     1
176
     1
290
     0
176
     1
290
     0
176
     1
290
     0
176
     1
290
     0
176
     1
290
     0
176
     1
290
     0
176
     1
 90
       50
176
     1
 40
0.0
176
     1
 40
1.0
176
     1
 90
        0
176
     1
 62
    18
420
        0
176
     1
 90
       50
176
     1
 90
        3
176
     1
 62
     5
420
      255
176
     1
290
     0
176
     1
 90
       50
176
     1
 90
       50
176
     1
 90
       50
176
     1
290
     0
176
     1
 90
       50
176
     1
 62
   256
176
     0
 40
1.0
176
     0
 90
        2
176
     1
  1
strokes_ogs.tif
176
     1
290
     0
176
     1
 40
1.0
176
     1
 40
1.0
176
     1
  0
VISUALSTYLE
  5
C8
102
{ACAD_REACTORS
330
BC
102
}
330
BC
100
AcDbVisualStyle
  2
Brighten
 70
    12
177
     3
291
     1
 70
    58
 90
        2
176
     1
 90
        2
176
     1
 90
        0
176
     1
 90
        0
176
     1
 40
0.6
176
     1
 40
30.0
176
     1
 62
     7
420
 16777215
176
     1
 90
        1
176
     1
 90
        4
176
     1
 62
     7
176
     1
 62
   257
176
     1
 90
        1
176
     1
 90
        1
176
     1
 40
1.0
176
     1
 90
        8
176
     1
 62
     7
176
     1
 40
1.0
176
     1
 90
        1
176
     1
 90
        6
176
     1
 90
        2
176
     1
 62
     7
176
     1
 90
        5
176
     1
 90
        0
176
     1
 90
        0
176
     1
290
     0
176
     1
 90
        1
176
     1
 40
50.0
176
     1
 90
        0
176
     1
290
     0
176
     1
290
     1
176
     1
290
     1
176
     1
290
     0
176
     1
290
     0
176
     1
290
     0
176
     1
290
     0
176
     1
290
     0
176
     1
290
     0
176
     1
 90
       50
176
     1
 40
0.0
176
     1
 40
1.0
176
     1
 90
        0
176
     1
 62
    18
420
        0
176
     1
 90
       50
176
     1
 90
        3
176
     1
 62
     5
420
      255
176
     1
290
     0
176
     1
 90
       50
176
     1
 90
       50
176
     1
 90
       50
176
     1
290
     0
176
     1
 90
       50
176
     1
 62
   256
176
     0
 40
1.0
176
     0
 90
        2
176
     1
  1
strokes_ogs.tif
176
     1
290
     0
176
     1
 40
1.0
176
     1
 40
1.0
176
     1
  0
VISUALSTYLE
  5
CC
102
{ACAD_REACTORS
330
BC
102
}
330
BC
100
AcDbVisualStyle
  2
ColorChange
 70
    16
177
     3
291
     1
 70
    58
 90
        2
176
     1
 90
        2
176
     1
 90
        3
176
     1
 90
        0
176
     1
 40
0.6
176
     1
 40
30.0
176
     1
 62
     8
420
  8421504
176
     1
 90
        1
176
     1
 90
        4
176
     1
 62
     7
176
     1
 62
   257
176
     1
 90
        1
176
     1
 90
        1
176
     1
 40
1.0
176
     1
 90
        8
176
     1
 62
     8
420
  8421504
176
     1
 40
1.0
176
     1
 90
        1
176
     1
 90
        6
176
     1
 90
        2
176
     1
 62
     7
176
     1
 90
        5
176
     1
 90
        0
176
     1
 90
        0
176
     1
290
     0
176
     1
 90
        1
176
     1
 40
0.0
176
     1
 90
        0
176
     1
290
     0
176
     1
290
     1
176
     1
290
     1
176
     1
290
     0
176
     1
290
     0
176
     1
290
     0
176
     1
290
     0
176
     1
290
     0
176
     1
290
     0
176
     1
 90
       50
176
     1
 40
0.0
176
     1
 40
1.0
176
     1
 90
        0
176
     1
 62
    18
420
        0
176
     1
 90
       50
176
     1
 90
        3
176
     1
 62
     5
420
      255
176
     1
290
     0
176
     1
 90
       50
176
     1
 90
       50
176
     1
 90
       50
176
     1
290
     0
176
     1
 90
       50
176
     1
 62
   256
176
     0
 40
1.0
176
     0
 90
        2
176
     1
  1
strokes_ogs.tif
176
     1
290
     0
176
     1
 40
1.0
176
     1
 40
1.0
176
     1
  0
VISUALSTYLE
  5
C6
102
{ACAD_REACTORS
330
BC
102
}
330
BC
100
AcDbVisualStyle
  2
Conceptual
 70
     9
177
     3
291
     0
 70
    58
 90
        3
176
     1
 90
        2
176
     1
 90
        0
176
     1
 90
        0
176
     1
 40
0.6
176
     1
 40
30.0
176
     1
 62
     7
420
 16777215
176
     1
 90
        2
176
     1
 90
        2
176
     1
 62
     7
176
     1
 62
   257
176
     1
 90
        1
176
     1
 90
        1
176
     1
 40
179.0
176
     1
 90
        8
176
     1
 62
     7
176
     1
 40
1.0
176
     1
 90
        1
176
     1
 90
        6
176
     1
 90
        2
176
     1
 62
     7
176
     1
 90
        3
176
     1
 90
        0
176
     1
 90
        0
176
     1
290
     0
176
     1
 90
        1
176
     1
 40
0.0
176
     1
 90
        0
176
     1
290
     0
176
     1
290
     1
176
     1
290
     1
176
     1
290
     0
176
     1
290
     0
176
     1
290
     0
176
     1
290
     0
176
     1
290
     0
176
     1
290
     0
176
     1
 90
       50
176
     1
 40
0.0
176
     1
 40
1.0
176
     1
 90
        0
176
     1
 62
    18
420
        0
176
     1
 90
       50
176
     1
 90
        3
176
     1
 62
     5
420
      255
176
     1
290
     0
176
     1
 90
       50
176
     1
 90
       50
176
     1
 90
       50
176
     1
290
     0
176
     1
 90
       50
176
     1
 62
   256
176
     0
 40
1.0
176
     0
 90
        2
176
     1
  1
strokes_ogs.tif
176
     1
290
     0
176
     1
 40
1.0
176
     1
 40
1.0
176
     1
  0
VISUALSTYLE
  5
C7
102
{ACAD_REACTORS
330
BC
102
}
330
BC
100
AcDbVisualStyle
  2
Dim
 70
    11
177
     3
291
     1
 70
    58
 90
        2
176
     1
 90
        2
176
     1
 90
        0
176
     1
 90
        0
176
     1
 40
0.6
176
     1
 40
30.0
176
     1
 62
     7
420
 16777215
176
     1
 90
        1
176
     1
 90
        4
176
     1
 62
     7
176
     1
 62
   257
176
     1
 90
        1
176
     1
 90
        1
176
     1
 40
1.0
176
     1
 90
        8
176
     1
 62
     7
176
     1
 40
1.0
176
     1
 90
        1
176
     1
 90
        6
176
     1
 90
        2
176
     1
 62
     7
176
     1
 90
        5
176
     1
 90
        0
176
     1
 90
        0
176
     1
290
     0
176
     1
 90
        1
176
     1
 40
-50.0
176
     1
 90
        0
176
     1
290
     0
176
     1
290
     1
176
     1
290
     1
176
     1
290
     0
176
     1
290
     0
176
     1
290
     0
176
     1
290
     0
176
     1
290
     0
176
     1
290
     0
176
     1
 90
       50
176
     1
 40
0.0
176
     1
 40
1.0
176
     1
 90
        0
176
     1
 62
    18
420
        0
176
     1
 90
       50
176
     1
 90
        3
176
     1
 62
     5
420
      255
176
     1
290
     0
176
     1
 90
       50
176
     1
 90
       50
176
     1
 90
       50
176
     1
290
     0
176
     1
 90
       50
176
     1
 62
   256
176
     0
 40
1.0
176
     0
 90
        2
176
     1
  1
strokes_ogs.tif
176
     1
290
     0
176
     1
 40
1.0
176
     1
 40
1.0
176
     1
  0
VISUALSTYLE
  5
CF
102
{ACAD_REACTORS
330
BC
102
}
330
BC
100
AcDbVisualStyle
  2
EdgeColorOff
 70
    22
177
     3
291
     1
 70
    58
 90
        2
176
     0
 90
        2
176
     0
 90
        0
176
     0
 90
        0
176
     0
 40
0.6
176
     0
 40
30.0
176
     0
 62
     7
420
 16777215
176
     0
 90
        1
176
     0
 90
        4
176
     0
 62
     7
176
     0
 62
   257
176
     0
 90
        1
176
     0
 90
        1
176
     0
 40
1.0
176
     0
 90
        8
176
     2
 62
     7
176
     0
 40
1.0
176
     0
 90
        1
176
     0
 90
        6
176
     0
 90
        2
176
     0
 62
     7
176
     0
 90
        5
176
     0
 90
        0
176
     0
 90
        0
176
     0
290
     0
176
     0
 90
        1
176
     0
 40
0.0
176
     0
 90
        0
176
     0
290
     0
176
     0
290
     1
176
     0
290
     1
176
     0
290
     0
176
     0
290
     0
176
     0
290
     0
176
     0
290
     0
176
     0
290
     0
176
     0
290
     0
176
     0
 90
       50
176
     0
 40
0.0
176
     0
 40
1.0
176
     0
 90
        0
176
     0
 62
    18
420
        0
176
     0
 90
       50
176
     0
 90
        3
176
     0
 62
     5
420
      255
176
     0
290
     0
176
     0
 90
       50
176
     0
 90
       50
176
     0
 90
       50
176
     0
290
     0
176
     0
 90
       50
176
     0
 62
   256
176
     0
 40
1.0
176
     0
 90
        2
176
     0
  1
strokes_ogs.tif
176
     0
290
     0
176
     0
 40
1.0
176
     0
 40
1.0
176
     0
  0
VISUALSTYLE
  5
CB
102
{ACAD_REACTORS
330
BC
102
}
330
BC
100
AcDbVisualStyle
  2
Facepattern
 70
    15
177
     3
291
     1
 70
    58
 90
        2
176
     1
 90
        2
176
     1
 90
        0
176
     1
 90
        0
176
     1
 40
0.6
176
     1
 40
30.0
176
     1
 62
     7
420
 16777215
176
     1
 90
        1
176
     1
 90
        4
176
     1
 62
     7
176
     1
 62
   257
176
     1
 90
        1
176
     1
 90
        1
176
     1
 40
1.0
176
     1
 90
        8
176
     1
 62
     7
176
     1
 40
1.0
176
     1
 90
        1
176
     1
 90
        6
176
     1
 90
        2
176
     1
 62
     7
176
     1
 90
        5
176
     1
 90
        0
176
     1
 90
        0
176
     1
290
     0
176
     1
 90
        1
176
     1
 40
0.0
176
     1
 90
        0
176
     1
290
     0
176
     1
290
     1
176
     1
290
     1
176
     1
290
     0
176
     1
290
     0
176
     1
290
     0
176
     1
290
     0
176
     1
290
     0
176
     1
290
     0
176
     1
 90
       50
176
     1
 40
0.0
176
     1
 40
1.0
176
     1
 90
        0
176
     1
 62
    18
420
        0
176
     1
 90
       50
176
     1
 90
        3
176
     1
 62
     5
420
      255
176
     1
290
     0
176
     1
 90
       50
176
     1
 90
       50
176
     1
 90
       50
176
     1
290
     0
176
     1
 90
       50
176
     1
 62
   256
176
     0
 40
1.0
176
     0
 90
        2
176
     1
  1
strokes_ogs.tif
176
     1
290
     0
176
     1
 40
1.0
176
     1
 40
1.0
176
     1
  0
VISUALSTYLE
  5
BD
102
{ACAD_REACTORS
330
BC
102
}
330
BC
100
AcDbVisualStyle
  2
Flat
 70
     0
177
     3
291
     1
 70
    58
 90
        2
176
     1
 90
        1
176
     1
 90
        1
176
     1
 90
        2
176
     1
 40
0.6
176
     1
 40
30.0
176
     1
 62
     7
420
 16777215
176
     1
 90
        0
176
     1
 90
        0
176
     1
 62
     7
176
     1
 62
   257
176
     1
 90
        1
176
     1
 90
        1
176
     1
 40
1.0
176
     1
 90
        8
176
     1
 62
     7
176
     1
 40
1.0
176
     1
 90
        1
176
     1
 90
        6
176
     1
 90
        2
176
     1
 62
     7
176
     1
 90
        5
176
     1
 90
        0
176
     1
 90
        0
176
     1
290
     0
176
     1
 90
       13
176
     1
 40
0.0
176
     1
 90
        0
176
     1
290
     0
176
     1
290
     1
176
     1
290
     1
176
     1
290
     0
176
     1
290
     0
176
     1
290
     0
176
     1
290
     0
176
     1
290
     0
176
     1
290
     0
176
     1
 90
       50
176
     1
 40
0.0
176
     1
 40
1.0
176
     1
 90
        0
176
     1
 62
    18
420
        0
176
     1
 90
       50
176
     1
 90
        3
176
     1
 62
     5
420
      255
176
     1
290
     0
176
     1
 90
       50
176
     1
 90
       50
176
     1
 90
       50
176
     1
290
     0
176
     1
 90
       50
176
     1
 62
   256
176
     0
 40
1.0
176
     0
 90
        2
176
     1
  1
strokes_ogs.tif
176
     1
290
     0
176
     1
 40
1.0
176
     1
 40
1.0
176
     1
  0
VISUALSTYLE
  5
BE
102
{ACAD_REACTORS
330
BC
102
}
330
BC
100
AcDbVisualStyle
  2
FlatWithEdges
 70
     1
177
     3
291
     1
 70
    58
 90
        2
176
     1
 90
        1
176
     1
 90
        1
176
     1
 90
        2
176
     1
 40
0.6
176
     1
 40
30.0
176
     1
 62
     7
420
 16777215
176
     1
 90
        1
176
     1
 90
        0
176
     1
 62
     7
176
     1
 62
   257
176
     1
 90
        1
176
     1
 90
        1
176
     1
 40
1.0
176
     1
 90
        0
176
     1
 62
   257
176
     1
 40
1.0
176
     1
 90
        1
176
     1
 90
        6
176
     1
 90
        2
176
     1
 62
     7
176
     1
 90
        5
176
     1
 90
        0
176
     1
 90
        0
176
     1
290
     0
176
     1
 90
       13
176
     1
 40
0.0
176
     1
 90
        0
176
     1
290
     0
176
     1
290
     1
176
     1
290
     1
176
     1
290
     0
176
     1
290
     0
176
     1
290
     0
176
     1
290
     0
176
     1
290
     0
176
     1
290
     0
176
     1
 90
       50
176
     1
 40
0.0
176
     1
 40
1.0
176
     1
 90
        0
176
     1
 62
    18
420
        0
176
     1
 90
       50
176
     1
 90
        3
176
     1
 62
     5
420
      255
176
     1
290
     0
176
     1
 90
       50
176
     1
 90
       50
176
     1
 90
       50
176
     1
290
     0
176
     1
 90
       50
176
     1
 62
   256
176
     0
 40
1.0
176
     0
 90
        2
176
     1
  1
strokes_ogs.tif
176
     1
290
     0
176
     1
 40
1.0
176
     1
 40
1.0
176
     1
  0
VISUALSTYLE
  5
BF
102
{ACAD_REACTORS
330
BC
102
}
330
BC
100
AcDbVisualStyle
  2
Gouraud
 70
     2
177
     3
291
     1
 70
    58
 90
        2
176
     1
 90
        2
176
     1
 90
        1
176
     1
 90
        2
176
     1
 40
0.6
176
     1
 40
30.0
176
     1
 62
     7
420
 16777215
176
     1
 90
        0
176
     1
 90
        0
176
     1
 62
     7
176
     1
 62
   257
176
     1
 90
        1
176
     1
 90
        1
176
     1
 40
1.0
176
     1
 90
        0
176
     1
 62
     7
176
     1
 40
1.0
176
     1
 90
        1
176
     1
 90
        6
176
     1
 90
        2
176
     1
 62
     7
176
     1
 90
        5
176
     1
 90
        0
176
     1
 90
        0
176
     1
290
     0
176
     1
 90
       13
176
     1
 40
0.0
176
     1
 90
        0
176
     1
290
     0
176
     1
290
     1
176
     1
290
     1
176
     1
290
     0
176
     1
290
     0
176
     1
290
     0
176
     1
290
     0
176
     1
290
     0
176
     1
290
     0
176
     1
 90
       50
176
     1
 40
0.0
176
     1
 40
1.0
176
     1
 90
        0
176
     1
 62
    18
420
        0
176
     1
 90
       50
176
     1
 90
        3
176
     1
 62
     5
420
      255
176
     1
290
     0
176
     1
 90
       50
176
     1
 90
       50
176
     1
 90
       50
176
     1
290
     0
176
     1
 90
       50
176
     1
 62
   256
176
     0
 40
1.0
176
     0
 90
        2
176
     1
  1
strokes_ogs.tif
176
     1
290
     0
176
     1
 40
1.0
176
     1
 40
1.0
176
     1
  0
VISUALSTYLE
  5
C0
102
{ACAD_REACTORS
330
BC
102
}
330
BC
100
AcDbVisualStyle
  2
GouraudWithEdges
 70
     3
177
     3
291
     1
 70
    58
 90
        2
176
     1
 90
        2
176
     1
 90
        1
176
     1
 90
        2
176
     1
 40
0.6
176
     1
 40
30.0
176
     1
 62
     7
420
 16777215
176
     1
 90
        1
176
     1
 90
        0
176
     1
 62
     7
176
     1
 62
   257
176
     1
 90
        1
176
     1
 90
        1
176
     1
 40
1.0
176
     1
 90
        0
176
     1
 62
   257
176
     1
 40
1.0
176
     1
 90
        1
176
     1
 90
        6
176
     1
 90
        2
176
     1
 62
     7
176
     1
 90
        5
176
     1
 90
        0
176
     1
 90
        0
176
     1
290
     0
176
     1
 90
       13
176
     1
 40
0.0
176
     1
 90
        0
176
     1
290
     0
176
     1
290
     1
176
     1
290
     1
176
     1
290
     0
176
     1
290
     0
176
     1
290
     0
176
     1
290
     0
176
     1
290
     0
176
     1
290
     0
176
     1
 90
       50
176
     1
 40
0.0
176
     1
 40
1.0
176
     1
 90
        0
176
     1
 62
    18
420
        0
176
     1
 90
       50
176
     1
 90
        3
176
     1
 62
     5
420
      255
176
     1
290
     0
176
     1
 90
       50
176
     1
 90
       50
176
     1
 90
       50
176
     1
290
     0
176
     1
 90
       50
176
     1
 62
   256
176
     0
 40
1.0
176
     0
 90
        2
176
     1
  1
strokes_ogs.tif
176
     1
290
     0
176
     1
 40
1.0
176
     1
 40
1.0
176
     1
  0
VISUALSTYLE
  5
C3
102
{ACAD_REACTORS
330
BC
102
}
330
BC
100
AcDbVisualStyle
  2
Hidden
 70
     6
177
     3
291
     0
 70
    58
 90
        1
176
     1
 90
        2
176
     1
 90
        2
176
     1
 90
        0
176
     1
 40
0.6
176
     1
 40
30.0
176
     1
 62
     7
420
 16777215
176
     1
 90
        2
176
     1
 90
        2
176
     1
 62
     7
176
     1
 62
   257
176
     1
 90
        2
176
     1
 90
        1
176
     1
 40
40.0
176
     1
 90
        0
176
     1
 62
   257
176
     1
 40
1.0
176
     1
 90
        1
176
     1
 90
        6
176
     1
 90
        2
176
     1
 62
     7
176
     1
 90
        3
176
     1
 90
        0
176
     1
 90
        0
176
     1
290
     0
176
     1
 90
        1
176
     1
 40
0.0
176
     1
 90
        0
176
     1
290
     0
176
     1
290
     1
176
     1
290
     1
176
     1
290
     0
176
     1
290
     0
176
     1
290
     0
176
     1
290
     0
176
     1
290
     0
176
     1
290
     0
176
     1
 90
       50
176
     1
 40
0.0
176
     1
 40
1.0
176
     1
 90
        0
176
     1
 62
    18
420
        0
176
     1
 90
       50
176
     1
 90
        3
176
     1
 62
     5
420
      255
176
     1
290
     0
176
     1
 90
       50
176
     1
 90
       50
176
     1
 90
       50
176
     1
290
     0
176
     1
 90
       50
176
     1
 62
   256
176
     0
 40
1.0
176
     0
 90
        2
176
     1
  1
strokes_ogs.tif
176
     1
290
     0
176
     1
 40
1.0
176
     1
 40
1.0
176
     1
  0
VISUALSTYLE
  5
CD
102
{ACAD_REACTORS
330
BC
102
}
330
BC
100
AcDbVisualStyle
  2
JitterOff
 70
    20
177
     3
291
     1
 70
    58
 90
        2
176
     0
 90
        2
176
     0
 90
        0
176
     0
 90
        0
176
     0
 40
0.6
176
     0
 40
30.0
176
     0
 62
     7
420
 16777215
176
     0
 90
        1
176
     0
 90
        4
176
     0
 62
     7
176
     0
 62
   257
176
     0
 90
        1
176
     0
 90
        1
176
     0
 40
1.0
176
     0
 90
       10
176
     2
 62
     7
176
     0
 40
1.0
176
     0
 90
        1
176
     0
 90
        6
176
     0
 90
        2
176
     0
 62
     7
176
     0
 90
        5
176
     0
 90
        0
176
     0
 90
        0
176
     0
290
     0
176
     0
 90
        1
176
     0
 40
0.0
176
     0
 90
        0
176
     0
290
     0
176
     0
290
     1
176
     0
290
     1
176
     0
290
     0
176
     0
290
     0
176
     0
290
     0
176
     0
290
     0
176
     0
290
     0
176
     0
290
     0
176
     0
 90
       50
176
     0
 40
0.0
176
     0
 40
1.0
176
     0
 90
        0
176
     0
 62
    18
420
        0
176
     0
 90
       50
176
     0
 90
        3
176
     0
 62
     5
420
      255
176
     0
290
     0
176
     0
 90
       50
176
     0
 90
       50
176
     0
 90
       50
176
     0
290
     0
176
     0
 90
       50
176
     0
 62
   256
176
     0
 40
1.0
176
     0
 90
        2
176
     0
  1
strokes_ogs.tif
176
     0
290
     0
176
     0
 40
1.0
176
     0
 40
1.0
176
     0
  0
VISUALSTYLE
  5
CA
102
{ACAD_REACTORS
330
BC
102
}
330
BC
100
AcDbVisualStyle
  2
Linepattern
 70
    14
177
     3
291
     1
 70
    58
 90
        2
176
     1
 90
        2
176
     1
 90
        0
176
     1
 90
        0
176
     1
 40
0.6
176
     1
 40
30.0
176
     1
 62
     7
420
 16777215
176
     1
 90
        1
176
     1
 90
        4
176
     1
 62
     7
176
     1
 62
   257
176
     1
 90
        7
176
     1
 90
        7
176
     1
 40
1.0
176
     1
 90
        8
176
     1
 62
     7
176
     1
 40
1.0
176
     1
 90
        1
176
     1
 90
        6
176
     1
 90
        2
176
     1
 62
     7
176
     1
 90
        5
176
     1
 90
        0
176
     1
 90
        0
176
     1
290
     0
176
     1
 90
        1
176
     1
 40
0.0
176
     1
 90
        0
176
     1
290
     0
176
     1
290
     1
176
     1
290
     1
176
     1
290
     0
176
     1
290
     0
176
     1
290
     0
176
     1
290
     0
176
     1
290
     0
176
     1
290
     0
176
     1
 90
       50
176
     1
 40
0.0
176
     1
 40
1.0
176
     1
 90
        0
176
     1
 62
    18
420
        0
176
     1
 90
       50
176
     1
 90
        3
176
     1
 62
     5
420
      255
176
     1
290
     0
176
     1
 90
       50
176
     1
 90
       50
176
     1
 90
       50
176
     1
290
     0
176
     1
 90
       50
176
     1
 62
   256
176
     0
 40
1.0
176
     0
 90
        2
176
     1
  1
strokes_ogs.tif
176
     1
290
     0
176
     1
 40
1.0
176
     1
 40
1.0
176
     1
  0
VISUALSTYLE
  5
CE
102
{ACAD_REACTORS
330
BC
102
}
330
BC
100
AcDbVisualStyle
  2
OverhangOff
 70
    21
177
     3
291
     1
 70
    58
 90
        2
176
     0
 90
        2
176
     0
 90
        0
176
     0
 90
        0
176
     0
 40
0.6
176
     0
 40
30.0
176
     0
 62
     7
420
 16777215
176
     0
 90
        1
176
     0
 90
        4
176
     0
 62
     7
176
     0
 62
   257
176
     0
 90
        1
176
     0
 90
        1
176
     0
 40
1.0
176
     0
 90
        9
176
     2
 62
     7
176
     0
 40
1.0
176
     0
 90
        1
176
     0
 90
        6
176
     0
 90
        2
176
     0
 62
     7
176
     0
 90
        5
176
     0
 90
        0
176
     0
 90
        0
176
     0
290
     0
176
     0
 90
        1
176
     0
 40
0.0
176
     0
 90
        0
176
     0
290
     0
176
     0
290
     1
176
     0
290
     1
176
     0
290
     0
176
     0
290
     0
176
     0
290
     0
176
     0
290
     0
176
     0
290
     0
176
     0
290
     0
176
     0
 90
       50
176
     0
 40
0.0
176
     0
 40
1.0
176
     0
 90
        0
176
     0
 62
    18
420
        0
176
     0
 90
       50
176
     0
 90
        3
176
     0
 62
     5
420
      255
176
     0
290
     0
176
     0
 90
       50
176
     0
 90
       50
176
     0
 90
       50
176
     0
290
     0
176
     0
 90
       50
176
     0
 62
   256
176
     0
 40
1.0
176
     0
 90
        2
176
     0
  1
strokes_ogs.tif
176
     0
290
     0
176
     0
 40
1.0
176
     0
 40
1.0
176
     0
  0
VISUALSTYLE
  5
C5
102
{ACAD_REACTORS
330
BC
102
}
330
BC
100
AcDbVisualStyle
  2
Realistic
 70
     8
177
     3
291
     0
 70
    58
 90
        2
176
     1
 90
        3
176
     1
 90
        0
176
     1
 90
        2
176
     1
 40
0.6
176
     1
 40
30.0
176
     1
 62
     7
420
 16777215
176
     1
 90
        0
176
     1
 90
        0
176
     1
 62
     7
176
     1
 62
   257
176
     1
 90
        1
176
     1
 90
        1
176
     1
 40
1.0
176
     1
 90
        8
176
     1
 62
   257
176
     1
 40
1.0
176
     1
 90
        1
176
     1
 90
        6
176
     1
 90
        2
176
     1
 62
     7
176
     1
 90
        3
176
     1
 90
        0
176
     1
 90
        0
176
     1
290
     0
176
     1
 90
       13
176
     1
 40
0.0
176
     1
 90
        0
176
     1
290
     0
176
     1
290
     1
176
     1
290
     1
176
     1
290
     0
176
     1
290
     0
176
     1
290
     0
176
     1
290
     0
176
     1
290
     0
176
     1
290
     0
176
     1
 90
       50
176
     1
 40
0.0
176
     1
 40
1.0
176
     1
 90
        0
176
     1
 62
    18
420
        0
176
     1
 90
       50
176
     1
 90
        3
176
     1
 62
     5
420
      255
176
     1
290
     0
176
     1
 90
       50
176
     1
 90
       50
176
     1
 90
       50
176
     1
290
     0
176
     1
 90
       50
176
     1
 62
   256
176
     0
 40
1.0
176
     0
 90
        2
176
     1
  1
strokes_ogs.tif
176
     1
290
     0
176
     1
 40
1.0
176
     1
 40
1.0
176
     1
  0
VISUALSTYLE
  5
D4
102
{ACAD_REACTORS
330
BC
102
}
330
BC
100
AcDbVisualStyle
  2
Shaded
 70
    27
177
     3
291
     0
 70
    58
 90
        2
176
     1
 90
        2
176
     1
 90
        1
176
     1
 90
        2
176
     1
 40
0.6
176
     1
 40
30.0
176
     1
 62
     7
420
 16777215
176
     1
 90
        0
176
     1
 90
        4
176
     1
 62
     7
176
     1
 62
   257
176
     1
 90
        1
176
     1
 90
        1
176
     1
 40
1.0
176
     1
 90
        8
176
     1
 62
   257
176
     1
 40
1.0
176
     1
 90
        1
176
     1
 90
        6
176
     1
 90
        2
176
     1
 62
     8
420
  7895160
176
     1
 90
        3
176
     1
 90
        0
176
     1
 90
        0
176
     1
290
     0
176
     1
 90
        5
176
     1
 40
0.0
176
     1
 90
        0
176
     1
290
     0
176
     1
290
     1
176
     1
290
     1
176
     1
290
     0
176
     1
290
     0
176
     1
290
     0
176
     1
290
     0
176
     1
290
     0
176
     1
290
     0
176
     1
 90
       50
176
     1
 40
0.0
176
     1
 40
1.0
176
     1
 90
        0
176
     1
 62
    18
420
        0
176
     1
 90
       50
176
     1
 90
        3
176
     1
 62
     5
420
      255
176
     1
290
     0
176
     1
 90
       50
176
     1
 90
       50
176
     1
 90
       50
176
     1
290
     0
176
     1
 90
       50
176
     1
 62
   256
176
     0
 40
1.0
176
     0
 90
        2
176
     1
  1
strokes_ogs.tif
176
     1
290
     0
176
     1
 40
1.0
176
     1
 40
1.0
176
     1
  0
VISUALSTYLE
  5
D3
102
{ACAD_REACTORS
330
BC
102
}
330
BC
100
AcDbVisualStyle
  2
Shaded with edges
 70
    26
177
     3
291
     0
 70
    58
 90
        2
176
     1
 90
        2
176
     1
 90
        1
176
     1
 90
        2
176
     1
 40
0.6
176
     1
 40
30.0
176
     1
 62
     7
420
 16777215
176
     1
 90
        1
176
     1
 90
       10
176
     1
 62
     7
176
     1
 62
   257
176
     1
 90
        2
176
     1
 90
        1
176
     1
 40
1.0
176
     1
 90
        8
176
     1
 62
   257
176
     1
 40
1.0
176
     1
 90
        1
176
     1
 90
        6
176
     1
 90
        2
176
     1
 62
     7
176
     1
 90
        3
176
     1
 90
        0
176
     1
 90
        0
176
     1
290
     0
176
     1
 90
        5
176
     1
 40
0.0
176
     1
 90
        0
176
     1
290
     0
176
     1
290
     1
176
     1
290
     1
176
     1
290
     0
176
     1
290
     0
176
     1
290
     0
176
     1
290
     0
176
     1
290
     0
176
     1
290
     0
176
     1
 90
       50
176
     1
 40
0.0
176
     1
 40
1.0
176
     1
 90
        0
176
     1
 62
    18
420
        0
176
     1
 90
       50
176
     1
 90
        3
176
     1
 62
     5
420
      255
176
     1
290
     0
176
     1
 90
       50
176
     1
 90
       50
176
     1
 90
       50
176
     1
290
     0
176
     1
 90
       50
176
     1
 62
   256
176
     0
 40
1.0
176
     0
 90
        2
176
     1
  1
strokes_ogs.tif
176
     1
290
     0
176
     1
 40
1.0
176
     1
 40
1.0
176
     1
  0
VISUALSTYLE
  5
D0
102
{ACAD_REACTORS
330
BC
102
}
330
BC
100
AcDbVisualStyle
  2
Shades of Gray
 70
    23
177
     3
291
     0
 70
    58
 90
        2
176
     1
 90
        2
176
     1
 90
        3
176
     1
 90
        0
176
     1
 40
0.6
176
     1
 40
30.0
176
     1
 62
     7
420
 16777215
176
     1
 90
        2
176
     1
 90
        2
176
     1
 62
     7
176
     1
 62
     7
176
     1
 90
        1
176
     1
 90
        1
176
     1
 40
40.0
176
     1
 90
        8
176
     1
 62
     7
176
     1
 40
1.0
176
     1
 90
        1
176
     1
 90
        6
176
     1
 90
        2
176
     1
 62
     7
176
     1
 90
        3
176
     1
 90
        0
176
     1
 90
        0
176
     1
290
     0
176
     1
 90
        1
176
     1
 40
0.0
176
     1
 90
        0
176
     1
290
     0
176
     1
290
     1
176
     1
290
     1
176
     1
290
     0
176
     1
290
     0
176
     1
290
     0
176
     1
290
     0
176
     1
290
     0
176
     1
290
     0
176
     1
 90
       50
176
     1
 40
0.0
176
     1
 40
1.0
176
     1
 90
        0
176
     1
 62
    18
420
        0
176
     1
 90
       50
176
     1
 90
        3
176
     1
 62
     5
420
      255
176
     1
290
     0
176
     1
 90
       50
176
     1
 90
       50
176
     1
 90
       50
176
     1
290
     0
176
     1
 90
       50
176
     1
 62
   256
176
     0
 40
1.0
176
     0
 90
        2
176
     1
  1
strokes_ogs.tif
176
     1
290
     0
176
     1
 40
1.0
176
     1
 40
1.0
176
     1
  0
VISUALSTYLE
  5
D1
102
{ACAD_REACTORS
330
BC
102
}
330
BC
100
AcDbVisualStyle
  2
Sketchy
 70
    24
177
     3
291
     0
 70
    58
 90
        1
176
     1
 90
        2
176
     1
 90
        2
176
     1
 90
        0
176
     1
 40
0.6
176
     1
 40
30.0
176
     1
 62
     7
420
 16777215
176
     1
 90
        2
176
     1
 90
        2
176
     1
 62
     7
176
     1
 62
     7
176
     1
 90
        1
176
     1
 90
        1
176
     1
 40
40.0
176
     1
 90
       11
176
     1
 62
     7
176
     1
 40
1.0
176
     1
 90
        1
176
     1
 90
        6
176
     1
 90
        2
176
     1
 62
     7
176
     1
 90
        6
176
     1
 90
        0
176
     1
 90
        0
176
     1
290
     0
176
     1
 90
        1
176
     1
 40
0.0
176
     1
 90
        0
176
     1
290
     0
176
     1
290
     1
176
     1
290
     1
176
     1
290
     0
176
     1
290
     0
176
     1
290
     0
176
     1
290
     0
176
     1
290
     0
176
     1
290
     0
176
     1
 90
       50
176
     1
 40
0.0
176
     1
 40
1.0
176
     1
 90
        0
176
     1
 62
    18
420
        0
176
     1
 90
       50
176
     1
 90
        3
176
     1
 62
     5
420
      255
176
     1
290
     0
176
     1
 90
       50
176
     1
 90
       50
176
     1
 90
       50
176
     1
290
     0
176
     1
 90
       50
176
     1
 62
   256
176
     0
 40
1.0
176
     0
 90
        2
176
     1
  1
strokes_ogs.tif
176
     1
290
     0
176
     1
 40
1.0
176
     1
 40
1.0
176
     1
  0
VISUALSTYLE
  5
C9
102
{ACAD_REACTORS
330
BC
102
}
330
BC
100
AcDbVisualStyle
  2
Thicken
 70
    13
177
     3
291
     1
 70
    58
 90
        2
176
     1
 90
        2
176
     1
 90
        0
176
     1
 90
        0
176
     1
 40
0.6
176
     1
 40
30.0
176
     1
 62
     7
420
 16777215
176
     1
 90
        1
176
     1
 90
        4
176
     1
 62
     7
176
     1
 62
   257
176
     1
 90
        1
176
     1
 90
        1
176
     1
 40
1.0
176
     1
 90
       12
176
     1
 62
     7
176
     1
 40
1.0
176
     1
 90
        1
176
     1
 90
        6
176
     1
 90
        2
176
     1
 62
     7
176
     1
 90
        5
176
     1
 90
        0
176
     1
 90
        0
176
     1
290
     0
176
     1
 90
        1
176
     1
 40
0.0
176
     1
 90
        0
176
     1
290
     0
176
     1
290
     1
176
     1
290
     1
176
     1
290
     0
176
     1
290
     0
176
     1
290
     0
176
     1
290
     0
176
     1
290
     0
176
     1
290
     0
176
     1
 90
       50
176
     1
 40
0.0
176
     1
 40
1.0
176
     1
 90
        0
176
     1
 62
    18
420
        0
176
     1
 90
       50
176
     1
 90
        3
176
     1
 62
     5
420
      255
176
     1
290
     0
176
     1
 90
       50
176
     1
 90
       50
176
     1
 90
       50
176
     1
290
     0
176
     1
 90
       50
176
     1
 62
   256
176
     0
 40
1.0
176
     0
 90
        2
176
     1
  1
strokes_ogs.tif
176
     1
290
     0
176
     1
 40
1.0
176
     1
 40
1.0
176
     1
  0
VISUALSTYLE
  5
C2
102
{ACAD_REACTORS
330
BC
102
}
330
BC
100
AcDbVisualStyle
  2
Wireframe
 70
     5
177
     3
291
     0
 70
    58
 90
        0
176
     1
 90
        2
176
     1
 90
        0
176
     1
 90
        0
176
     1
 40
0.6
176
     1
 40
30.0
176
     1
 62
     7
420
 16777215
176
     1
 90
        1
176
     1
 90
        4
176
     1
 62
     7
176
     1
 62
   257
176
     1
 90
        1
176
     1
 90
        1
176
     1
 40
1.0
176
     1
 90
        0
176
     1
 62
   257
176
     1
 40
1.0
176
     1
 90
        1
176
     1
 90
        6
176
     1
 90
        2
176
     1
 62
     7
176
     1
 90
        3
176
     1
 90
        0
176
     1
 90
        0
176
     1
290
     0
176
     1
 90
        1
176
     1
 40
0.0
176
     1
 90
        0
176
     1
290
     0
176
     1
290
     1
176
     1
290
     1
176
     1
290
     0
176
     1
290
     0
176
     1
290
     0
176
     1
290
     0
176
     1
290
     0
176
     1
290
     0
176
     1
 90
       50
176
     1
 40
0.0
176
     1
 40
1.0
176
     1
 90
        0
176
     1
 62
    18
420
        0
176
     1
 90
       50
176
     1
 90
        3
176
     1
 62
     5
420
      255
176
     1
290
     0
176
     1
 90
       50
176
     1
 90
       50
176
     1
 90
       50
176
     1
290
     0
176
     1
 90
       50
176
     1
 62
   256
176
     0
 40
1.0
176
     0
 90
        2
176
     1
  1
strokes_ogs.tif
176
     1
290
     0
176
     1
 40
1.0
176
     1
 40
1.0
176
     1
  0
VISUALSTYLE
  5
D2
102
{ACAD_REACTORS
330
BC
102
}
330
BC
100
AcDbVisualStyle
  2
X-Ray
 70
    25
177
     3
291
     0
 70
    58
 90
        2
176
     1
 90
        2
176
     1
 90
        1
176
     1
 90
        1
176
     1
 40
0.5
176
     1
 40
30.0
176
     1
 62
     7
420
 16777215
176
     1
 90
        1
176
     1
 90
        0
176
     1
 62
     7
176
     1
 62
   257
176
     1
 90
        1
176
     1
 90
        1
176
     1
 40
1.0
176
     1
 90
        8
176
     1
 62
     7
176
     1
 40
1.0
176
     1
 90
        1
176
     1
 90
        6
176
     1
 90
        2
176
     1
 62
     7
176
     1
 90
        3
176
     1
 90
        0
176
     1
 90
        0
176
     1
290
     0
176
     1
 90
       13
176
     1
 40
0.0
176
     1
 90
        0
176
     1
290
     0
176
     1
290
     1
176
     1
290
     1
176
     1
290
     0
176
     1
290
     0
176
     1
290
     0
176
     1
290
     0
176
     1
290
     0
176
     1
290
     0
176
     1
 90
       50
176
     1
 40
0.0
176
     1
 40
1.0
176
     1
 90
        0
176
     1
 62
    18
420
        0
176
     1
 90
       50
176
     1
 90
        3
176
     1
 62
     5
420
      255
176
     1
290
     0
176
     1
 90
       50
176
     1
 90
       50
176
     1
 90
       50
176
     1
290
     0
176
     1
 90
       50
176
     1
 62
   256
176
     0
 40
1.0
176
     0
 90
        2
176
     1
  1
strokes_ogs.tif
176
     1
290
     0
176
     1
 40
1.0
176
     1
 40
1.0
176
     1
  0
DICTIONARYVAR
  5
DE
102
{ACAD_REACTORS
330
DD
102
}
330
DD
100
DictionaryVariables
280
     0
  1
1:1
  0
DICTIONARYVAR
  5
E3
102
{ACAD_REACTORS
330
DD
102
}
330
DD
100
DictionaryVariables
280
     0
  1
Standard
  0
DICTIONARYVAR
  5
E2
102
{ACAD_REACTORS
330
DD
102
}
330
DD
100
DictionaryVariables
280
     0
  1
Standard
  0
DICTIONARY
  5
DF
330
DA
100
AcDbDictionary
280
     1
281
     1
  3
ACAD_ROUNDTRIP_2008_TABLESTYLE_CELLSTYLEMAP
360
E0
  0
CELLSTYLEMAP
  5
E0
102
{ACAD_REACTORS
330
DF
102
}
330
DF
100
AcDbCellStyleMap
 90
        3
300
CELLSTYLE
  1
TABLEFORMAT_BEGIN
 90
        5
170
     1
 91
        0
 92
    32768
 62
   257
 93
        1
300
CONTENTFORMAT
  1
CONTENTFORMAT_BEGIN
 90
        0
 91
        0
 92
        4
 93
        0
300

 40
0.0
140
1.0
 94
        5
 62
     0
340
20
144
0.25
309
CONTENTFORMAT_END
171
     1
301
MARGIN
  1
CELLMARGIN_BEGIN
 40
0.06
 40
0.06
 40
0.06
 40
0.06
 40
0.06
 40
0.06
309
CELLMARGIN_END
 94
        6
 95
        1
302
GRIDFORMAT
  1
GRIDFORMAT_BEGIN
 90
        0
 91
        1
 62
     0
 92
       -2
340
10
 93
        0
 40
0.045
309
GRIDFORMAT_END
 95
        2
302
GRIDFORMAT
  1
GRIDFORMAT_BEGIN
 90
        0
 91
        1
 62
     0
 92
       -2
340
10
 93
        0
 40
0.045
309
GRIDFORMAT_END
 95
        4
302
GRIDFORMAT
  1
GRIDFORMAT_BEGIN
 90
        0
 91
        1
 62
     0
 92
       -2
340
10
 93
        0
 40
0.045
309
GRIDFORMAT_END
 95
        8
302
GRIDFORMAT
  1
GRIDFORMAT_BEGIN
 90
        0
 91
        1
 62
     0
 92
       -2
340
10
 93
        0
 40
0.045
309
GRIDFORMAT_END
 95
       16
302
GRIDFORMAT
  1
GRIDFORMAT_BEGIN
 90
        0
 91
        1
 62
     0
 92
       -2
340
10
 93
        0
 40
0.045
309
GRIDFORMAT_END
 95
       32
302
GRIDFORMAT
  1
GRIDFORMAT_BEGIN
 90
        0
 91
        1
 62
     0
 92
       -2
340
10
 93
        0
 40
0.045
309
GRIDFORMAT_END
309
TABLEFORMAT_END
  1
CELLSTYLE_BEGIN
 90
        1
 91
        1
300
_TITLE
309
CELLSTYLE_END
300
CELLSTYLE
  1
TABLEFORMAT_BEGIN
 90
        5
170
     1
 91
        0
 92
        0
 62
   257
 93
        1
300
CONTENTFORMAT
  1
CONTENTFORMAT_BEGIN
 90
        0
 91
        0
 92
        4
 93
        0
300

 40
0.0
140
1.0
 94
        5
 62
     0
340
20
144
0.18
309
CONTENTFORMAT_END
171
     1
301
MARGIN
  1
CELLMARGIN_BEGIN
 40
0.06
 40
0.06
 40
0.06
 40
0.06
 40
0.06
 40
0.06
309
CELLMARGIN_END
 94
        6
 95
        1
302
GRIDFORMAT
  1
GRIDFORMAT_BEGIN
 90
        0
 91
        1
 62
     0
 92
       -2
340
10
 93
        0
 40
0.045
309
GRIDFORMAT_END
 95
        2
302
GRIDFORMAT
  1
GRIDFORMAT_BEGIN
 90
        0
 91
        1
 62
     0
 92
       -2
340
10
 93
        0
 40
0.045
309
GRIDFORMAT_END
 95
        4
302
GRIDFORMAT
  1
GRIDFORMAT_BEGIN
 90
        0
 91
        1
 62
     0
 92
       -2
340
10
 93
        0
 40
0.045
309
GRIDFORMAT_END
 95
        8
302
GRIDFORMAT
  1
GRIDFORMAT_BEGIN
 90
        0
 91
        1
 62
     0
 92
       -2
340
10
 93
        0
 40
0.045
309
GRIDFORMAT_END
 95
       16
302
GRIDFORMAT
  1
GRIDFORMAT_BEGIN
 90
        0
 91
        1
 62
     0
 92
       -2
340
10
 93
        0
 40
0.045
309
GRIDFORMAT_END
 95
       32
302
GRIDFORMAT
  1
GRIDFORMAT_BEGIN
 90
        0
 91
        1
 62
     0
 92
       -2
340
10
 93
        0
 40
0.045
309
GRIDFORMAT_END
309
TABLEFORMAT_END
  1
CELLSTYLE_BEGIN
 90
        2
 91
        1
300
_HEADER
309
CELLSTYLE_END
300
CELLSTYLE
  1
TABLEFORMAT_BEGIN
 90
        5
170
     1
 91
        0
 92
        0
 62
   257
 93
        1
300
CONTENTFORMAT
  1
CONTENTFORMAT_BEGIN
 90
        0
 91
        0
 92
        4
 93
        0
300

 40
0.0
140
1.0
 94
        2
 62
     0
340
20
144
0.18
309
CONTENTFORMAT_END
171
     1
301
MARGIN
  1
CELLMARGIN_BEGIN
 40
0.06
 40
0.06
 40
0.06
 40
0.06
 40
0.06
 40
0.06
309
CELLMARGIN_END
 94
        6
 95
        1
302
GRIDFORMAT
  1
GRIDFORMAT_BEGIN
 90
        0
 91
        1
 62
     0
 92
       -2
340
10
 93
        0
 40
0.045
309
GRIDFORMAT_END
 95
        2
302
GRIDFORMAT
  1
GRIDFORMAT_BEGIN
 90
        0
 91
        1
 62
     0
 92
       -2
340
10
 93
        0
 40
0.045
309
GRIDFORMAT_END
 95
        4
302
GRIDFORMAT
  1
GRIDFORMAT_BEGIN
 90
        0
 91
        1
 62
     0
 92
       -2
340
10
 93
        0
 40
0.045
309
GRIDFORMAT_END
 95
        8
302
GRIDFORMAT
  1
GRIDFORMAT_BEGIN
 90
        0
 91
        1
 62
     0
 92
       -2
340
10
 93
        0
 40
0.045
309
GRIDFORMAT_END
 95
       16
302
GRIDFORMAT
  1
GRIDFORMAT_BEGIN
 90
        0
 91
        1
 62
     0
 92
       -2
340
10
 93
        0
 40
0.045
309
GRIDFORMAT_END
 95
       32
302
GRIDFORMAT
  1
GRIDFORMAT_BEGIN
 90
        0
 91
        1
 62
     0
 92
       -2
340
10
 93
        0
 40
0.045
309
GRIDFORMAT_END
309
TABLEFORMAT_END
  1
CELLSTYLE_BEGIN
 90
        3
 91
        2
300
_DATA
309
CELLSTYLE_END
  0
ENDSEC
  0
EOF
